"Reference","Voyager","Name","Tenadd 1","Tenadd 2","Tenadd 3","Tenadd 4","Tenadd 5","Tenadd 6","Tenpost","Ten stat","Reference","Yardi Manco Ref","Desc","Pm name","Reference","-","Unit Desc","Address[2]","Address[3]","Address[4]","Address[5]","Address[6]","Postcode","Property Status","Poldref","T act","P act","Brand","Include SC"
"1043/01","","Ms L Rodgers","","Flat One","12 Torridon Road","Catford","London","","SE6 1AQ","Current","1043","","Torridon Road, 12","Kimberley Gould","1043/01","","Flat 1","Flat One","12 Torridon Road","Catford","London","","SE6 1AQ","Active","","1","1","TF",1
"1043/02","","Mr Mark Pybus","","Flat 2","12 Torridon Road","Catford","London","","SE6 1AQ","StandingOrder","1043","","Torridon Road, 12","Kimberley Gould","1043/02","","Flat 2","Flat 2","12 Torridon Road","Catford","London","","SE6 1AQ","Active","","1","1","TF",1
"1043/03","","Philip Joseph Rockingham Pyatt","","Flat Three","12 Torridon Road","Catford","London","","SE6 1AQ","Current","1043","","Torridon Road, 12","Kimberley Gould","1043/03","","Flat 3","Flat Three","12 Torridon Road","Catford","London","","SE6 1AQ","Active","","1","1","TF",1
"1048/01","","Mr I J Bloor & Mr P V Hayward","","Flat One","187 Anerley Road","Anerley","London","","SE20 8EL","Current","1048","","Anerley Road, 187","Kimberley Gould","1048/01","","Flat 1","Flat One","187 Anerley Road","Anerley","London","","SE20 8EL","Active","","1","1","TF",1
"1048/02","","Ms A.Smith","","Flat 2","187 Anerley Rd","Annerley","London","","SE20 5EL","On Hold - PM","1048","","Anerley Road, 187","Kimberley Gould","1048/02","","Flat 2","Flat 2","187 Anerley Rd","Annerley","London","","SE20 5EL","Active","","1","1","TF",1
"1048/03","","Ms M K O'Grady","","49 Wydehurst Road","Addiscombe","Croydon","","","CRO 6NJ","Current","1048","","Anerley Road, 187","Kimberley Gould","1048/03","","Flat 3","Flat Three","187 Anerley Road","Anerley","London","","SE20 8EL","Active","","1","1","TF",1
"1048/04","","Mrs G D Thompson","","Flat Four","187 Anerley Road","Anerley","London","","SE20 8EL","Current","1048","","Anerley Road, 187","Kimberley Gould","1048/04","","Flat 4","Flat Four","187 Anerley Road","Anerley","London","","SE20 8EL","Active","","1","1","TF",1
"1123/01","","Ms P McDowell","","Flat One Westwood Court","1 Westwood Park","Forest Hill","","","SE23 3RU","Current","1123","","Westwood Court","Kimberley Gould","1123/01","","Flat 1","Flat One Westwood Court","1 Westwood Park","Forest Hill","","","SE23 3RU","Active","","1","1","TF",1
"1123/02","","Ms P R Fyfe","","Flat Two Westwood Court","1 Westwood Park","Forest Hill","","","SE23 3RU","StandingOrder","1123","","Westwood Court","Kimberley Gould","1123/02","","Flat 2","Flat Two Westwood Court","1 Westwood Park","Forest Hill","","","SE23 3RU","Active","","1","1","TF",1
"1123/03","","Ms M.Chick","","Flat Three Westwood Court","1 Westwood Park","Forest Hill","","","SE23 3RU","Current","1123","","Westwood Court","Kimberley Gould","1123/03","","Flat 3","Flat Three Westwood Court","1 Westwood Park","Forest Hill","","","SE23 3RU","Active","","1","1","TF",1
"1123/04","","Mr John Green","","Flat Four Westwood Court","1 Westwood Park","Forest Hill","","","SE23 3RU","On Hold - PM","1123","","Westwood Court","Kimberley Gould","1123/04","","Flat 4","Flat Four Westwood Court","1 Westwood Park","Forest Hill","","","SE23 3RU","Active","","1","1","TF",1
"1123/05","","Mr S A Parkes","","Flat Five Westwood Court","1 Westwood Park","Forest Hill","","","SE23 3RU","Current","1123","","Westwood Court","Kimberley Gould","1123/05","","Flat 5","Flat Five Westwood Court","1 Westwood Park","Forest Hill","","","SE23 3RU","Active","","1","1","TF",1
"1123/06","","Mr M Slattery","","Flat Six Westwood Court","1 Westwood Park","Forest Hill","","","SE23 3RU","Current","1123","","Westwood Court","Kimberley Gould","1123/06","","Flat 6","Flat Six Westwood Court","1 Westwood Park","Forest Hill","","","SE23 3RU","Active","","1","1","TF",1
"1123/07","","Miss M P Lavery","","Flat Seven Westwood Court","1 Westwood Park","Forest Hill","","","SE23 3RU","Current","1123","","Westwood Court","Kimberley Gould","1123/07","","Flat 7","Flat Seven Westwood Court","1 Westwood Park","Forest Hill","","","SE23 3RU","Active","","1","1","TF",1
"1123/08","","Mr M Foulger","","Flat Eight Westwood Court","1 Westwood Park","Forest Hill","","","SE23 3RU","Current","1123","","Westwood Court","Kimberley Gould","1123/08","","Flat 8","Flat Eight Westwood Court","1 Westwood Park","Forest Hill","","","SE23 3RU","Active","","1","1","TF",1
"1123/09","","Mr A Pitman","","Flat 9 Westwood Court","1 Westwood Park","London","","","SE23 3RU","Current","1123","","Westwood Court","Kimberley Gould","1123/09","","Flat 9","Flat 9 Westwood Court","1 Westwood Park","London","","","SE23 3RU","Active","","1","1","TF",1
"1123/10","","Mr Ian William Tuck","","Flat Ten Westwood Court","1 Westwood Park","Forest Hill","","","SE23 3RU","Current","1123","","Westwood Court","Kimberley Gould","1123/10","","Flat 10","Flat Ten Westwood Court","1 Westwood Park","Forest Hill","","","SE23 3RU","Active","","1","1","TF",1
"1123/11","","Mrs C Forsythe","","Flat Eleven Westwood Court","1 Westwood Park","Forest Hill","","","SE23 3RU","Current","1123","","Westwood Court","Kimberley Gould","1123/11","","Flat 11","Flat Eleven Westwood Court","1 Westwood Park","Forest Hill","","","SE23 3RU","Active","","1","1","TF",1
"1132/01","","Mr D Kerley","","Flat 1","58 Church Road","Upper Norwood","London","","SE19 2EZ","Current","1132","","Church Road 58","Kimberley Gould","1132/01","","Flat 1","Flat 1","58 Church Road","Upper Norwood","London","","SE19 2EZ","Active","","1","1","TF",1
"1132/02","","Kletus Cliff Joannou","","39 Hillside","Banstead","Surrey","","","SN7 1HG","Current","1132","","Church Road 58","Kimberley Gould","1132/02","","Flat 2","Flat 2","58 Church Road","Upper Norwood","London","","SE19 2EZ","Active","","1","1","TF",1
"1132/03","","Mr M Mifsud","","300 Lordship Lane","East Dulwich","London","","","SE22 8LY","Current","1132","","Church Road 58","Kimberley Gould","1132/03","","Rear Studio","300 Lordship Lane","East Dulwich","London","","","SE22 8LY","Active","","1","1","TF",1
"1132/04","","Mr Dil Singh","","Ground Floor and Basement","58 Church Road","London","","","SE19 2EZ","Current","1132","","Church Road 58","Kimberley Gould","1132/04","","Shop","Ground Floor and Basement","58 Church Road","London","","","SE19 2EZ","Active","","1","1","TF",1
"1196/01","","Miss C A M Pettit","","20 Wendover Road","Bromley","Kent","","","BR2 9JX","Debt Collect","1196","","Park Hill, 8","Kimberley Gould","1196/01","","Flat 1","Flat 1","8 Park Hill","Bickley","","","BR1 2JH","Active","","1","1","TF",1
"1196/02","","Ms Helen Julia Louise Lebar","","5 Tonbridge House","Abbey Park","Beckenham","Kent","","BR3 1PY","StandingOrder","1196","","Park Hill, 8","Kimberley Gould","1196/02","","Flat 2","Flat 2","8 Park Hill","Bickley","","","BR1 2JH","Active","","1","1","TF",1
"1196/03","","Mr M Sharp","","Flat 3","8 Park Hill","Bickley","","","BR1 2JH","Debt Collect","1196","","Park Hill, 8","Kimberley Gould","1196/03","","Flat 3","Flat 3","8 Park Hill","Bickley","","","BR1 2JH","Active","","1","1","TF",1
"1196/04","","Calico Developments Ltd","","C/O Acorn","9 Kelsey Park Road","Beckenham","Kent","","BR3 6LH","Current","1196","","Park Hill, 8","Kimberley Gould","1196/04","","Flat 4","Flat 4","8 Park Hill","Bickley","","","BR1 2JH","Active","","1","1","TF",1
"1196/05","","Ms Mahony","","Flat 5","8 Park Hill","Bickley","","","BR1 2JH","Current","1196","","Park Hill, 8","Kimberley Gould","1196/05","","Flat 5","Flat 5","8 Park Hill","Bickley","","","BR1 2JH","Active","","1","1","TF",1
"1196/06","","Mr & Mrs M Gilboy","","14 Palace Grove","Bromley","Kent","BR1 3HA","","","Current","1196","","Park Hill, 8","Kimberley Gould","1196/06","","Flat 6","Flat 6","8 Park Hill","Bickley","","","BR1 2JH","Active","","1","1","TF",1
"1196/07","","Ms J Sutherland","","Flat 7","8 Park Hill","Bickley","","","BR1 2JH","StandingOrder","1196","","Park Hill, 8","Kimberley Gould","1196/07","","Flat 7","Flat 7","8 Park Hill","Bickley","","","BR1 2JH","Active","","1","1","TF",1
"1196/08","","Mr N & Mrs J Frost","","Main Building","Flat 8","8 Park Hill","Bickley","","BR1 2JH","Current","1196","","Park Hill, 8","Kimberley Gould","1196/08","","Flat 8","Main Building","Flat 8","8 Park Hill","Bickley","","BR1 2JH","Active","","1","1","TF",1
"1203/01","","Catherine Anne Florence Sechiari","","Flat 1 Elizabeth Court","Ferris Road","Dulwich","","","SE22 9ND","StandingOrder","1203","","Elizabeth Court","Robert Jason","1203/01","","Flat 1","Flat 1 Elizabeth Court","Ferris Road","Dulwich","","","SE22 9ND","Active","","1","1","TF",1
"1203/02","","Tamryn R. Hauritz","","25Melford  Court","Melford Road","East Dulwich","London","","SE22 0AE","Reminder Sent","1203","","Elizabeth Court","Robert Jason","1203/02","","Flat 2","Flat 2 Elizabeth Court","Ferris Road","London","","","SE22 9NP","Active","","1","1","TF",1
"1203/03","","Ms Myrna Harding","","Flat 3","Elizabeth Court","Ferris Road","Dulwich","","SE22 9ND","Current","1203","","Elizabeth Court","Robert Jason","1203/03","","Flat 3","Flat 3","Elizabeth Court","Ferris Road","Dulwich","","SE22 9ND","Active","","1","1","TF",1
"1203/04","","Ms N Wambeek & Mr P McDermid","","14 Alexandra Road","King Langley","","Herts","","WD4 8DT","Current","1203","","Elizabeth Court","Robert Jason","1203/04","","Flat 4","Flat 4","Elizabeth Court","Ferris Road","Dulwich","","SE22 9ND","Active","","1","1","TF",1
"1203/05","","Steven Thompson","","Flat 5","Elizabeth Court","Ferris Road","Dulwich","","SE22 9ND","Current","1203","","Elizabeth Court","Robert Jason","1203/05","","Flat 5","Flat 5","Elizabeth Court","Ferris Road","Dulwich","","SE22 9ND","Active","","1","1","TF",1
"1203/06","","Mr Manoj Saini","","Flat 6","Elizabeth Court","Ferris Road","Dulwich","","SE22 9ND","Current","1203","","Elizabeth Court","Robert Jason","1203/06","","Flat 6","Flat 6","Elizabeth Court","Ferris Road","Dulwich","","SE22 9ND","Active","","1","1","TF",1
"1203/07","","Mr A O Otesanya","","Flat 7","Elizabeth Court","Ferris Road","Dulwich","","SE22 9ND","Current","1203","","Elizabeth Court","Robert Jason","1203/07","","Flat 7","Flat 7","Elizabeth Court","Ferris Road","Dulwich","","SE22 9ND","Active","","1","1","TF",1
"1203/08","","Miss Janet Robinson","","Flat 1","15 Lawrie Park Road","London","","","SE26 6DP","Current","1203","","Elizabeth Court","Robert Jason","1203/08","","Flat 8","Flat 8","Elizabeth Court","Ferris Road","Dulwich","","SE22 9NP","Active","","1","1","TF",1
"1203/09","","Thomas Bagent Ingman","","Flat 9","Elizabeth Court","Ferris Road","Dulwich","","SE22 9ND","Current","1203","","Elizabeth Court","Robert Jason","1203/09","","Flat 9","Flat 9","Elizabeth Court","Ferris Road","Dulwich","","SE22 9ND","Active","","1","1","TF",1
"1203/10","","Elizabeth Ann Hollingdale","","22D Birchington Road","London","","","","NW6 4LJ","Current","1203","","Elizabeth Court","Robert Jason","1203/10","","Flat 10","Flat 10","Elizabeth Court","Ferris Road","Dulwich","","SE22 9NP","Active","","1","1","TF",1
"BELMO05","","Anthony Keeping & Sarah Ann Locke","","5 Autumn Drive","Sutton","Surrey","","","SM2 5BB","StandingOrder","BELMONT","","Autumn Drive, 5-99","Kimberley Gould","BELMO05","","5 Autumn Drive","5 Autumn Drive","Sutton","Surrey","","","SM2 5BB","Active","","1","1","TF",1
"BELMO07","","Simon Clark & Sarah Bell","","7 Autumn Drive","Sutton","Surrey","","","SM2 5BB","Current","BELMONT","","Autumn Drive, 5-99","Kimberley Gould","BELMO07","","7 Autumn Drive","7 Autumn Drive","Sutton","Surrey","","","SM2 5BB","Active","","1","1","TF",1
"BELMO09","","Masoor Fraz Ahmed","","9 Autumn Drive","Sutton","Surrey","","","SM2 5BB","Current","BELMONT","","Autumn Drive, 5-99","Kimberley Gould","BELMO09","","9 Belmont Height","9 Autumn Drive","Sutton","Surrey","","","SM2 5BB","Active","","1","1","TF",1
"BELMO11","","Miss M A Gascoine","","11 Autumn Drive","Sutton","Surrey","","","SM2 5BB","StandingOrder","BELMONT","","Autumn Drive, 5-99","Kimberley Gould","BELMO11","","11Belmont Height","11 Autumn Drive","Sutton","Surrey","","","SM2 5BB","Active","","1","1","TF",1
"BELMO13","","Mr P F Williams & Mrs S C Williams","","13 Autumn Drive","Sutton","Surrey","","","SM2 5BB","Reminder Sent","BELMONT","","Autumn Drive, 5-99","Kimberley Gould","BELMO13","","13 Belmont Height","13 Autumn Drive","Sutton","Surrey","","","SM2 5BB","Active","","1","1","TF",1
"BELMO15","","Mr Muhaimin Al-Qarni Choudhury","","15 Autumn Drive","Belmont Heights","Sutton","Surrey","","SM2 5BB","Current","BELMONT","","Autumn Drive, 5-99","Kimberley Gould","BELMO15","","15 Belmont Height","15 Autumn Drive","Belmont Heights","Sutton","Surrey","","SM2 5BB","Active","","1","1","TF",1
"BELMO17","","Mr B Parmenter & Ms J Bentley","","17 Autumn Drive","Sutton","Surrey","","","SM2 5BB","StandingOrder","BELMONT","","Autumn Drive, 5-99","Kimberley Gould","BELMO17","","17 Belmont Height","17 Autumn Drive","Sutton","Surrey","","","SM2 5BB","Active","","1","1","TF",1
"BELMO19","","Arie Bisset & Suzanne Dubras","","111 Mulgrave Road","Sutton","Surrey","","","SM2 6JU","Current","BELMONT","","Autumn Drive, 5-99","Kimberley Gould","BELMO19","","19 Belmont Height","111 Mulgrave Road","Sutton","Surrey","","","SM2 6JU","Active","","1","1","TF",1
"BELMO21","","Mr Cyril Kearney","","21 Autumn Drive","Sutton","Surrey","","","SM2 5BB","StandingOrder","BELMONT","","Autumn Drive, 5-99","Kimberley Gould","BELMO21","","21 Belmont Height","21 Autumn Drive","Sutton","Surrey","","","SM2 5BB","Active","","1","1","TF",1
"BELMO23","","Mr A R Pogson & Ms K L Warrener","","23 Autumn Drive","Sutton","Surrey","","","SM2 5BB","StandingOrder","BELMONT","","Autumn Drive, 5-99","Kimberley Gould","BELMO23","","23 Belmont Height","23 Autumn Drive","Sutton","Surrey","","","SM2 5BB","Active","","1","1","TF",1
"BELMO25","","Miss Leila Alaeifar","","25 Autumn Drive","Sutton","Surrey","","","SM2 5BB","Current","BELMONT","","Autumn Drive, 5-99","Kimberley Gould","BELMO25","","25 Belmont Height","25 Autumn Drive","Sutton","Surrey","","","SM2 5BB","Active","","1","1","TF",1
"BELMO27","","Mrs Mary Ferguson","","12 Lilley Drive","Kingswood","Surrey","","","KT20 6JA","StandingOrder","BELMONT","","Autumn Drive, 5-99","Kimberley Gould","BELMO27","","27 Belmont Height","27 Autumn Drive","Sutton","Surrey","","","SM2 5BB","Active","","1","1","TF",1
"BELMO29","","Mr R Brewerton & Miss S Boys","","29 Autumn Drive","Sutton","Surrey","","","SM2 5BB","Current","BELMONT","","Autumn Drive, 5-99","Kimberley Gould","BELMO29","","29 Belmont Height","29 Autumn Drive","Sutton","Surrey","","","SM2 5BB","Active","","1","1","TF",1
"BELMO31","","Mrs J A Lane","","7 Montfort Drive","Kings Hill","West Malling","Kent","","ME19 4EG","StandingOrder","BELMONT","","Autumn Drive, 5-99","Kimberley Gould","BELMO31","","31 Belmont Height","7 Montfort Drive","Kings Hill","West Malling","Kent","","ME19 4EG","Active","","1","1","TF",1
"BELMO33","","Mr Paul Gerald West","","7 Old Oak Avenue","Chipstead","","","","CR5 3PG","Current","BELMONT","","Autumn Drive, 5-99","Kimberley Gould","BELMO33","","33 Belmont Height","33 Autumn Drive","Sutton","Surrey","","","SM2 5BB","Active","","1","1","TF",1
"BELMO35","","Erdogan Hassan & Eileen Hassan","","35 Autumn Drive","5-99 Autumn Drive","Homeland Drive","Belmont","Surrey","SM2 5BB","Current","BELMONT","","Autumn Drive, 5-99","Kimberley Gould","BELMO35","","35 Belmont Height","35 Autumn Drive","5-99 Autumn Drive","Homeland Drive","Belmont","Surrey","SM2 5BB","Active","","1","1","TF",1
"BELMO37","","Mr D J Williams","","37 Autumn Drive","Sutton","Surrey","","","SM2 5BB","On Hold - PM","BELMONT","","Autumn Drive, 5-99","Kimberley Gould","BELMO37","","37 Belmont Height","37 Autumn Drive","Sutton","Surrey","","","SM2 5BB","Active","","1","1","TF",1
"BELMO39","","Mr R J Edwards","","39 Autumn Drive","Sutton","Surrey","","","SM2 5BB","Current","BELMONT","","Autumn Drive, 5-99","Kimberley Gould","BELMO39","","39 Belmont Height","39 Autumn Drive","Sutton","Surrey","","","SM2 5BB","Active","","1","1","TF",1
"BELMO41","","Mr M S Harrision and Ms H A May","","41 Autumn Drive","Sutton","Surrey","","","SM2 5BB","StandingOrder","BELMONT","","Autumn Drive, 5-99","Kimberley Gould","BELMO41","","41 Belmont Height","41 Autumn Drive","Sutton","Surrey","","","SM2 5BB","Active","","1","1","TF",1
"BELMO43","","Dr & Mrs Mashoof","","64 The Gallop","Sutton","Surrey","","","SM2 5RY","Reminder Sent","BELMONT","","Autumn Drive, 5-99","Kimberley Gould","BELMO43","","43 Belmont Height","43 Autumn Drive","Belmont","Sutton","Surrey","","SM2 5BB","Active","","1","1","TF",1
"BELMO45","","Mr John Dooley","","45 Autumn Drive","Homeland Drive","Surrey","","","SM2 5BB","StandingOrder","BELMONT","","Autumn Drive, 5-99","Kimberley Gould","BELMO45","","45 Belmont Height","45 Autumn Drive","Homeland Drive","Surrey","","","SM2 5BB","Active","","1","1","TF",1
"BELMO47","","Mr William Secombe","","47 Autumn Drive","Homeland Drive","Belmont","Surrey","SM2","","StandingOrder","BELMONT","","Autumn Drive, 5-99","Kimberley Gould","BELMO47","","47 Belmont Height","47 Autumn Drive","Homeland Drive","Belmont","Surrey","SM2","","Active","","1","1","TF",1
"BELMO49","","Mr & Mrs G Williams","","49 Autumn Drive","Sutton","Surrey","","","SM2 5BB","StandingOrder","BELMONT","","Autumn Drive, 5-99","Kimberley Gould","BELMO49","","49 Belmont Height","49 Autumn Drive","Sutton","Surrey","","","SM2 5BB","Active","","1","1","TF",1
"BELMO51","","Mr A Ward","","51 Autumn Drive","Homeland Drive","Belmont","Surrey","","SM2 5BB","Reminder Sent","BELMONT","","Autumn Drive, 5-99","Kimberley Gould","BELMO51","","51 Belmont Height","51 Autumn Drive","Homeland Drive","Belmont","Surrey","","SM2 5BB","Active","","1","1","TF",1
"BELMO53","","John Richard Sandy & Donna Marie Sandy","","53 Autumn Drive","Sutton","Surrey","","","SM2 5BD","StandingOrder","BELMONT","","Autumn Drive, 5-99","Kimberley Gould","BELMO53","","53 Belmont Height","53 Autumn Drive","Sutton","Surrey","","","SM2 5BD","Active","","1","1","TF",1
"BELMO55","","Messers B & N Moram","","55 Autumn Drive","Sutton","Surrey","","","SM2 5BD","StandingOrder","BELMONT","","Autumn Drive, 5-99","Kimberley Gould","BELMO55","","55 Belmont Height","55 Autumn Drive","Sutton","Surrey","","","SM2 5BD","Active","","1","1","TF",1
"BELMO57","","Mr S J Patmore","","26 Burnham Drive","Reigate","Surrey","","","RH2 9HD","Current","BELMONT","","Autumn Drive, 5-99","Kimberley Gould","BELMO57","","57 Autumn Drive","26 Burnham Drive","Reigate","Surrey","","","RH2 9HD","Active","","1","1","TF",1
"BELMO59","","Sapphira Nadine Gold","","59 Autumn Drive","Sutton","Surrey","","","SM2 5BD","Current","BELMONT","","Autumn Drive, 5-99","Kimberley Gould","BELMO59","","59 Belmont Height","59 Autumn Drive","Sutton","Surrey","","","SM2 5BD","Active","","1","1","TF",1
"BELMO61","","Mr Michael Davis & Miss Louisa Davis","","61 Autumn Drive","Sutton","Surrey","","","SM2 5BD","StandingOrder","BELMONT","","Autumn Drive, 5-99","Kimberley Gould","BELMO61","","61 Belmont Height","61 Autumn Drive","Sutton","Surrey","","","SM2 5BD","Active","","1","1","TF",1
"BELMO63","","Mr Sanjay Juneja","","63 Autumn Drive","Sutton","Surrey","","","SM2 5BD","Reminder Sent","BELMONT","","Autumn Drive, 5-99","Kimberley Gould","BELMO63","","63 Belmont Height","63 Autumn Drive","Sutton","Surrey","","","SM2 5BD","Active","","1","1","TF",1
"BELMO65","","Vaughn Wynne-Jones & Matthew John Chard","","65 Autumn Drive","","Sutton","","Surrey","SM2 5BD","Current","BELMONT","","Autumn Drive, 5-99","Kimberley Gould","BELMO65","","65 Belmont Height","65 Autumn Drive","","Sutton","","Surrey","SM2 5BD","Active","","1","1","TF",1
"BELMO67","","Martin Frederick Dewberry","","67 Autumn Drive","Sutton","Surrey","","","SM2 5BD","On Hold - PM","BELMONT","","Autumn Drive, 5-99","Kimberley Gould","BELMO67","","67 Belmont Height","67 Autumn Drive","Sutton","Surrey","","","SM2 5BD","Active","","1","1","TF",1
"BELMO69","","Miss Joanne MacDonald","","69 Autumn Drive","Sutton","Surrey","","","SM2 5BD","Current","BELMONT","","Autumn Drive, 5-99","Kimberley Gould","BELMO69","","69 Belmont Height","69 Autumn Drive","Sutton","Surrey","","","SM2 5BD","Active","","1","1","TF",1
"BELMO71","","Mr Roy Bhanot","","71 Autumn Drive","Sutton","Surrey","","","SM2 5BD","Reminder Sent","BELMONT","","Autumn Drive, 5-99","Kimberley Gould","BELMO71","","71 Belmont Height","71 Autumn Drive","Sutton","Surrey","","","SM2 5BD","Active","","1","1","TF",1
"BELMO73","","Mr Zahir Rathod and Ms Hina Rabheru","","73 Autumn Drive","Sutton","Surrey","","","SM2 5BD","StandingOrder","BELMONT","","Autumn Drive, 5-99","Kimberley Gould","BELMO73","","73 Belmont Height","73 Autumn Drive","Sutton","Surrey","","","SM2 5BD","Active","","1","1","TF",1
"BELMO75","","Miss F Connolly","","75 Autumn Drive","5-99 Autumn Drive","Homeland Drive","Belnont, Surrey","","SM2 5BB","Current","BELMONT","","Autumn Drive, 5-99","Kimberley Gould","BELMO75","","75 Belmont Height","75 Autumn Drive","5-99 Autumn Drive","Homeland Drive","Belnont, Surrey","","SM2 5BB","Active","","1","1","TF",1
"BELMO77","","Mr A J Scott","","77 Autumn Drive","Sutton","Surrey","","","SM2 5BD","StandingOrder","BELMONT","","Autumn Drive, 5-99","Kimberley Gould","BELMO77","","77 Belmont Height","77 Autumn Drive","Sutton","Surrey","","","SM2 5BD","Active","","1","1","TF",1
"BELMO79","","Robert Michael Gallon & Lyndsey Gallon","","79 Autumn Drive","Sutton","Surrey","","","SM2 5BD","Current","BELMONT","","Autumn Drive, 5-99","Kimberley Gould","BELMO79","","79 Belmont Heights","79 Autumn Drive","Sutton","Surrey","","","SM2 5BD","Active","","1","1","TF",1
"BELMO81","","Stephen Leslie Hill","","81 Autumn Drive","Sutton","Surrey","","","SM2 5BD","Debt Collect","BELMONT","","Autumn Drive, 5-99","Kimberley Gould","BELMO81","","81 Belmont Height","81 Autumn Drive","Sutton","Surrey","","","SM2 5BD","Active","","1","1","TF",1
"BELMO83","","Mr G Nash & Mrs W Nash","","1 Beeches Walk","Carshalton","Surrey","","","SM5 4JS","Current","BELMONT","","Autumn Drive, 5-99","Kimberley Gould","BELMO83","","83 Belmont Height","83 Autumn Drive","Sutton","Surrey","","","SM2 5BD","Active","","1","1","TF",1
"BELMO85","","Mr J D Ferrier","","22 Westmead Road","Sutton","Surrey","SM1 4JT","","","Current","BELMONT","","Autumn Drive, 5-99","Kimberley Gould","BELMO85","","85 Belmont Height","85 Autumn Drive","Sutton","Surrey","","","SM2 5BD","Active","","1","1","TF",1
"BELMO87","","Jon David Bojduniak & Sarah F A Crouch","","87 Autumn Drive","Sutton","Surrey","","","SM2 5BD","Reminder Sent","BELMONT","","Autumn Drive, 5-99","Kimberley Gould","BELMO87","","87 Belmont Height","87 Autumn Drive","Sutton","Surrey","","","SM2 5BD","Active","","1","1","TF",1
"BELMO89","","Mr J & Mrs A Gower","","21 Fryern Wood","Charldon","Surrey","","","CR3 5AR","Current","BELMONT","","Autumn Drive, 5-99","Kimberley Gould","BELMO89","","89 Belmont Height","21 Fryern Wood","Charldon","Surrey","","","CR3 5AR","Active","","1","1","TF",1
"BELMO91","","Miss E Y M Teoh","","91 Autumn Drive","Sutton","Surrey","","","SM2 5BD","StandingOrder","BELMONT","","Autumn Drive, 5-99","Kimberley Gould","BELMO91","","91 Belmont Height","91 Autumn Drive","Sutton","Surrey","","","SM2 5BD","Active","","1","1","TF",1
"BELMO93","","Mr & Mrs E Longhurst","","14 Holly Hill Park","Holly Hill Drive","Banstead","Surrey","","SM7 2HE","StandingOrder","BELMONT","","Autumn Drive, 5-99","Kimberley Gould","BELMO93","","93 Belmont Height","14 Holly Hill Park","Holly Hill Drive","Banstead","Surrey","","SM7 2HE","Active","","1","1","TF",1
"BELMO95","","Mr C G Mihalop","","95 Autumn Drive","Sutton","Surrey","","","SM2 5BD","StandingOrder","BELMONT","","Autumn Drive, 5-99","Kimberley Gould","BELMO95","","95 Belmont Height","95 Autumn Drive","Sutton","Surrey","","","SM2 5BD","Active","","1","1","TF",1
"BELMO97","","Mr Vincent O'Brien","","2 Prentice Court","Leopold Avenue","Wimbledon","","","SW19 7HA","Current","BELMONT","","Autumn Drive, 5-99","Kimberley Gould","BELMO97","","97 Belmont Height","97 Autumn Drive","Sutton","Surrey","","","SM2 5BD","Active","","1","1","TF",1
"BELMO99","","Kevin James Hazelden","","99 Autumn Drive","Sutton","Surrey","","","SM2 5BD","StandingOrder","BELMONT","","Autumn Drive, 5-99","Kimberley Gould","BELMO99","","99 Belmont Height","99 Autumn Drive","Sutton","Surrey","","","SM2 5BD","Active","","1","1","TF",1
"CAMPB01","","Miss K F Hart","","1 Campbell Close","38 Mitcham Lane","Streatham","London","","SW16 6NJ","Current","CAMPB.","","Campbell Close","Martin Hellenas","CAMPB01","","1 Campbell Close","1 Campbell Close","38 Mitcham Lane","Streatham","London","","SW16 6NJ","Active","","1","1","TF",1
"CAMPB02","","Mr U A O Nwachuku","","Flat 9 Holmleigh Court","Leigham Avenue","Streatham","London","","SW16 2PX","Current","CAMPB.","","Campbell Close","Martin Hellenas","CAMPB02","","2 Campbell Close","2 Campbell Close","38 Mithcam Lane","Streatham","London","","SW16 6NJ","Active","","1","1","TF",1
"CAMPB03","","Mr T Firdose","","92 Ingleboro Drive","Purley","Surrey","","","CR8 1EF","Current","CAMPB.","","Campbell Close","Martin Hellenas","CAMPB03","","3 Campbell Close","3 Campbell Close","38 Mitcham Lane","Stratham","London","","SW16 6NJ","Active","","1","1","TF",1
"CAMPB04","","Miss L Beaton","","4 Campbell Close","38 Mitcham Lane","Streatham","London","","SW16 6NJ","Reminder Sent","CAMPB.","","Campbell Close","Martin Hellenas","CAMPB04","","4 Campbell Close**Pmn't by SO","4 Campbell Close","38 Mitcham Lane","Streatham","London","","SW16 6NJ","Active","","1","1","TF",1
"CAMPB05","","Mr Charles & Mrs Grace Basoah","","314 Green Lane","Norbury,"," London","","","SW16 3AS.","Current","CAMPB.","","Campbell Close","Martin Hellenas","CAMPB05","","5 Campbell Close","5 Campbell Close","38 Mitcham Lane","Streatham","London","","SW16 6NJ","Active","","1","1","TF",1
"CAMPB06","","Mr Joerg Ziehe","","6 Campbell Close","38 Mitcham Lane","Streatham","London","","SW16 6NJ","Current","CAMPB.","","Campbell Close","Martin Hellenas","CAMPB06","","6 Campbell Close","6 Campbell Close","38 Mitcham Lane","Streatham","London","","SW16 6NJ","Active","","1","1","TF",1
"CAMPB07","","Ms F A Carnevale","","65 Marlborough Road","Merton","","","","SW19 2HF","Current","CAMPB.","","Campbell Close","Martin Hellenas","CAMPB07","","7 Campbell Close","7 Campbell Close","38 Mitcham Lane","Streatham","London","","SW16 6NJ","Active","","1","1","TF",1
"CAMPB08","","Mr S & Mrs K Radford","","8 Campbell Close","38 Mitcham Lane","Streatham","London","","SW16 6NJ","StandingOrder","CAMPB.","","Campbell Close","Martin Hellenas","CAMPB08","","8 Campbell Close**Pmn't by SO","8 Campbell Close","38 Mitcham Lane","Streatham","London","","SW16 6NJ","Active","","1","1","TF",1
"CAMPB09","","Miss V Dettorre","","9 Campbell Close","38 Mitcham Lane","Streatham","London","","SW16 6NJ","Current","CAMPB.","","Campbell Close","Martin Hellenas","CAMPB09","","9 Campbell Close","9 Campbell Close","38 Mitcham Lane","Streatham","London","","SW16 6NJ","Active","","1","1","TF",1
"CAMPB10","","Ms W F Harrison","","10 Campbell Close","38 Mitcham Lane","Streatham","London","","SW16 6NJ","Current","CAMPB.","","Campbell Close","Martin Hellenas","CAMPB10","","10 Campbell Close","10 Campbell Close","38 Mitcham Lane","Streatham","London","","SW16 6NJ","Active","","1","1","TF",1
"CAMPB11","","Mr Asmat Sameja IAS (LONDON) Ltd.","","2 Bourneviale Road","London","","","","SW16 2BA","Current","CAMPB.","","Campbell Close","Martin Hellenas","CAMPB11","","11 Campbell Close","11 Campbell Close","38 Mitcham Lane","Streatham","London","","SW16 6NJ","Active","","1","1","TF",1
"CAMPB12","","Thomas Owen Rogers","","12 Campbell Close","38 Mitcham Lane","Streatham","London","","SW16 6NJ","Current","CAMPB.","","Campbell Close","Martin Hellenas","CAMPB12","","12 Campbell Close","12 Campbell Close","38 Mitcham Lane","Streatham","London","","SW16 6NJ","Active","","1","1","TF",1
"CAMPB13","","Mr I J Boyd & Mr P D Beguin","","The Basement","136 Streatham High Road","Streatham","London","","SW16 1BW","Current","CAMPB.","","Campbell Close","Martin Hellenas","CAMPB13","","13 Campbell Close**Pmn't by SO","13 Campbell Close","38 Mitcham Lane","Streatham","London","","SW16 6NJ","Active","","1","1","TF",1
"CAMPB14","","Mariya Atanasova Hristoskova","","14 Campbell Close","Streatham","London","","","SW16 6NJ","Current","CAMPB.","","Campbell Close","Martin Hellenas","CAMPB14","","14 Campbell Close","14 Campbell Close","38 Mitcham Lane","Streatham","London","","SW16 6NJ","Active","","1","1","TF",1
"CAMPB15","","Mr P H Ashton","","15 Campbell Close","38 Mitcham Lane","Straetham","London","","SW16 0AY","StandingOrder","CAMPB.","","Campbell Close","Martin Hellenas","CAMPB15","","15 Campbell Close","15 Campbell Close","38 Mitcham Lane","Straetham","London","","SW16 0AY","Active","","1","1","TF",1
"CAMPB16","","Ms I I Hippolyte","","16 Campbell Close","38 Mitcham Lane","Streatham","London","","SW16 6NJ","Payment Plan","CAMPB.","","Campbell Close","Martin Hellenas","CAMPB16","","16 Campbell Close","16 Campbell Close","38 Mitcham Lane","Streatham","London","","SW16 6NJ","Active","","1","1","TF",1
"CAMPB45","","Mr & Mrs Panice","","45 Campbell Close","38 Mitcham Lane","Streatham","London","","SW16 6NJ","Current","CAMPB.","","Campbell Close","Martin Hellenas","CAMPB45","","45 Campbell Close","45 Campbell Close","38 Mitcham Lane","Streatham","London","","SW16 6NJ","Active","","1","1","TF",1
"CAMPB46","","Mr J Parker","","11 maytrees","hitchen","herts","","","sg4 9lt","Current","CAMPB.","","Campbell Close","Martin Hellenas","CAMPB46","","46 Campbell Close","46 Campbell Close","38 Mitcham Lane","Streatham","London","","SW16 6NJ","Active","","1","1","TF",1
"CAMPB47","","Mr R O Wilkins","","47 Campbell Close","38 Mitcham Lane","Streatham","London","","SW16 6NJ","Current","CAMPB.","","Campbell Close","Martin Hellenas","CAMPB47","","47 Campbell Close","47 Campbell Close","38 Mitcham Lane","Streatham","London","","SW16 6NJ","Active","","1","1","TF",1
"CAMPB48","","Mrs Charlotte Katherine Enenmoh","","48 Campbell Close","38 Mitcham Lane","Streatham","London","","SW16 6NJ","Current","CAMPB.","","Campbell Close","Martin Hellenas","CAMPB48","","48 Campbell Close","48 Campbell Close","38 Mitcham Lane","Streatham","London","","SW16 6NJ","Active","","1","1","TF",1
"CAMPB49","","Mr P J Kaluba","","49 Campbell Close","38 Mitcham Lane","Streatham","London","","SW16 6NJ","StandingOrder","CAMPB.","","Campbell Close","Martin Hellenas","CAMPB49","","49 Campbell Close","49 Campbell Close","38 Mitcham Lane","Streatham","London","","SW16 6NJ","Active","","1","1","TF",1
"CAMPB50","","Mr R I Campbell","","50 Campbell Close","Mitcham Lane","Streatham","London","","SW16 6NJ","Current","CAMPB.","","Campbell Close","Martin Hellenas","CAMPB50","","50 Campbell Close","50 Campbell Close","Mitcham Lane","Streatham","London","","SW16 6NJ","Active","","1","1","TF",1
"CAMPB51","","Petre & Maroussia Moutaftchiyska","","51 Campbell Close","38 Mitcham Lane","Streatham","London","","SW16 6NJ","Current","CAMPB.","","Campbell Close","Martin Hellenas","CAMPB51","","51 Campbell Close","51 Campbell Close","38 Mitcham Lane","Streatham","London","","SW16 6NJ","Active","","1","1","TF",1
"CAMPB52","","Stephen Howard Hartwell","","Flat 52 Campbell Close","38 Mitcham Lane","Streatham","","","SW16 6NJ","Current","CAMPB.","","Campbell Close","Martin Hellenas","CAMPB52","","52 Campbell Close","Flat 52 Campbell Close","38 Mitcham Lane","Streatham","","","SW16 6NJ","Active","","1","1","TF",1
"CAMPB53","","Mr R W Fletcher","","53 Campbell Close","38 Mitcham Lane","Streatham","London","","SW16 6NJ","Current","CAMPB.","","Campbell Close","Martin Hellenas","CAMPB53","","53 Campbell Close","53 Campbell Close","38 Mitcham Lane","Streatham","London","","SW16 6NJ","Active","","1","1","TF",1
"CAMPB54","","Ms R G & Ms J Thexton","","29 Waverley Road","Stoneleigh","Epsom","Surrey","","KT17 2LJ","Current","CAMPB.","","Campbell Close","Martin Hellenas","CAMPB54","","54 Campbell Close","54 Campbell Close","38 Mitcham Lane","Streatham","London","","SW16 6NJ","Active","","1","1","TF",1
"CAMPB55","","Mr R MacDonald","","8 Rural Way","Streatham","London","","","SW16 6PF","Uncollectable","CAMPB.","","Campbell Close","Martin Hellenas","CAMPB55","","55 Campbell Close","55 Campbell Close","38 Mitcham Lane","Streatham","London","","SW16 6NJ","Active","","1","1","TF",1
"CAMPB56","","Sarah Elizabeth Furniss","","56 Campbell Close","38 Mitcham Lane","Streatham","London","","SW16 6NJ","Current","CAMPB.","","Campbell Close","Martin Hellenas","CAMPB56","","56 Campbell Close","56 Campbell Close","38 Mitcham Lane","Streatham","London","","SW16 6NJ","Active","","1","1","TF",1
"CAMPB57","","Mr Z Marchant","","57 Campbell Close","Streatham","London","","","SW16 6NJ","Current","CAMPB.","","Campbell Close","Martin Hellenas","CAMPB57","","57 Campbell Close","57 Campbell Close","38 Mitcham Lane","Streatham","London","","SW16 6NJ","Active","","1","1","TF",1
"CAMPB58","","Mr M Duffus","","303 Tamworth Lane","Mitcham","Surrey","","","CR4 1DL","Debt Collect","CAMPB.","","Campbell Close","Martin Hellenas","CAMPB58","","58 Campbell Close","58 Campbell Close","38 Mitcham Lane","Streatham","London","","SW16 6NJ","Active","","1","1","TF",1
"CAMPB59","","Ms J J Hobbs","","59 Campbell Close","38 Mitcham Lane","Streatham","London","","SW16 6NJ","Payment Plan","CAMPB.","","Campbell Close","Martin Hellenas","CAMPB59","","59 Campbell Close","59 Campbell Close","38 Mitcham Lane","Streatham","London","","SW16 6NJ","Active","","1","1","TF",1
"CAMPB60","","Thi Kim Loan Huynh","","60 Campbell Close","Streatham","London","","","SW16 6NJ","Current","CAMPB.","","Campbell Close","Martin Hellenas","CAMPB60","","60 Campbell Close","60 Campbell Close","Streatham","London","","","SW16 6NJ","Active","","1","1","TF",1
"CAMPB17","","Mr N Jaywardena","","The Willows   40 Taylor Drive","Bramley","Tadley","Hants","","RG26 5XP","Reminder Sent","CAMPBE","","Campbell Close, 17-44","Martin Hellenas","CAMPB17","","17 Campbell Close","The Willows   40 Taylor Drive","Bramley","Tadley","Hants","","RG26 5XP","Active","","1","1","TF",1
"CAMPB18","","Mr A P Dougnaglo","","9 Coleman Avenue","","Hove","","","BN3 5ND","Debt Collect","CAMPBE","","Campbell Close, 17-44","Martin Hellenas","CAMPB18","","18 Campbell Close","18 Campbell Close","Mitcham Lane","Streatham","London","","SW16 6NJ","Active","","1","1","TF",1
"CAMPB19","","Mrs A T Read","","19 Campbell Close","Mitcham Lane","Streatham","London","SW16","","Current","CAMPBE","","Campbell Close, 17-44","Martin Hellenas","CAMPB19","","19 Campbell Close","19 Campbell Close","Mitcham Lane","Streatham","London","SW16","","Active","","1","1","TF",1
"CAMPB20","","Margaret Mary Boyle","","20 Campbell Close","Mitcham Lane","Streatham","London","SW16","","Reminder Sent","CAMPBE","","Campbell Close, 17-44","Martin Hellenas","CAMPB20","","20 Campbell Close","20 Campbell Close","Mitcham Lane","Streatham","London","SW16","","Active","","1","1","TF",1
"CAMPB21","","Mr Stephen Williams","","21 Campbell Close","Mitcham Lane","Streatham","London","","SW16 6NJ","Reminder Sent","CAMPBE","","Campbell Close, 17-44","Martin Hellenas","CAMPB21","","21 Campbell Close","21 Campbell Close","Mitcham Lane","Streatham","London","","SW16 6NJ","Active","","1","1","TF",1
"CAMPB22","","Mr  T D & Mrs N P Tileva","","22 Campbell Close","Mitcham Lane","Streatham","London","SW16","","Reminder Sent","CAMPBE","","Campbell Close, 17-44","Martin Hellenas","CAMPB22","","22 Campbell Close","22 Campbell Close","Mitcham Lane","Streatham","London","SW16","","Active","","1","1","TF",1
"CAMPB23","","Mr S C M Kelly","","c/o 25 Wentworth Way","St Leonards-on-sea","East Sussex","TN38 OXG","","","Reminder Sent","CAMPBE","","Campbell Close, 17-44","Martin Hellenas","CAMPB23","","23 Campbell Close","c/o 25 Wentworth Way","St Leonards-on-sea","East Sussex","TN38 OXG","","","Active","","1","1","TF",1
"CAMPB24","","Miss C Gentle","","24 Campbell Close","Mitcham Lane","Streatham","London","","SW16 6NJ","Current","CAMPBE","","Campbell Close, 17-44","Martin Hellenas","CAMPB24","","24 Campbell Close","24 Campbell Close","Mitcham Lane","Streatham","London","","SW16 6NJ","Active","","1","1","TF",1
"CAMPB25","","Ms J Roberti","","25 Campbell Close","Mitcham Lane","Streatham","London","SW16","","Reminder Sent","CAMPBE","","Campbell Close, 17-44","Martin Hellenas","CAMPB25","","25 Campbell Close","25 Campbell Close","Mitcham Lane","Streatham","London","SW16","","Active","","1","1","TF",1
"CAMPB26","","Miss M Sweeney","","26 Campbell Close","Mitcham Lane","Streatham","London","SW16","","Current","CAMPBE","","Campbell Close, 17-44","Martin Hellenas","CAMPB26","","26 Campbell Close","26 Campbell Close","Mitcham Lane","Streatham","London","SW16","","Active","","1","1","TF",1
"CAMPB27","","Mr M Griffiths","","27 Campbell Close","Mitcham Lane","Streatham","London","","SW16 6NJ","Current","CAMPBE","","Campbell Close, 17-44","Martin Hellenas","CAMPB27","","27 Campbell Close","27 Campbell Close","Mitcham Lane","Streatham","London","","SW16 6NJ","Active","","1","1","TF",1
"CAMPB28","","Miss Peart","","28 Campbell Close","Mitcham Lane","Streatham","London","SW16","","Debt Collect","CAMPBE","","Campbell Close, 17-44","Martin Hellenas","CAMPB28","","28 Campbell Close","28 Campbell Close","Mitcham Lane","Streatham","London","SW16","","Active","","1","1","TF",1
"CAMPB29","","Mr C C Cheung","","29 Campbell Close","Mitcham Lane","Streatham","London","SW16","","Reminder Sent","CAMPBE","","Campbell Close, 17-44","Martin Hellenas","CAMPB29","","29 Campbell Close","29 Campbell Close","Mitcham Lane","Streatham","London","SW16","","Active","","1","1","TF",1
"CAMPB30","","Family Housing Association","","Albion House","20 Queen Elizabeth Street","London","","","SE1 2RJ","Current","CAMPBE","","Campbell Close, 17-44","Martin Hellenas","CAMPB30","","30 Campbell Close","Albion House","20 Queen Elizabeth Street","London","","","SE1 2RJ","Active","","1","1","TF",1
"CAMPB31","","Mr D Ellis & Mes Chia Hui Ellis","","31 Campbell Close","Mitcham Lane","Streatham","London","","SW16 6LJ","Debt Collect","CAMPBE","","Campbell Close, 17-44","Martin Hellenas","CAMPB31","","31 Campbell Close","31 Campbell Close","Mitcham Lane","Streatham","London","","SW16 6LJ","Active","","1","1","TF",1
"CAMPB32","","Ms P Stewart","","32 Campbell Close","Mitcham Lane","Streatham","London","","SW16 6NJ","Reminder Sent","CAMPBE","","Campbell Close, 17-44","Martin Hellenas","CAMPB32","","32 Campbell Close","32 Campbell Close","Mitcham Lane","Streatham","London","","SW16 6NJ","Active","","1","1","TF",1
"CAMPB33","","Ms Amanda Watkins","","33 Campbell Close","Mitcham Lane","Streatham","London","SW16","","Current","CAMPBE","","Campbell Close, 17-44","Martin Hellenas","CAMPB33","","33 Campbell Close","33 Campbell Close","Mitcham Lane","Streatham","London","SW16","","Active","","1","1","TF",1
"CAMPB34","","Mr C Amurao & Miss N Libot","","34 Campbell Close","Mitcham Lane","Streatham","London","SW16","","Reminder Sent","CAMPBE","","Campbell Close, 17-44","Martin Hellenas","CAMPB34","","34 Campbell Close","34 Campbell Close","Mitcham Lane","Streatham","London","SW16","","Active","","1","1","TF",1
"CAMPB35","","Mrs P A Baker","","35 Campbell Close","Mitcham Lane","Streatham","London","SW16","","Current","CAMPBE","","Campbell Close, 17-44","Martin Hellenas","CAMPB35","","35 Campbell Close","35 Campbell Close","Mitcham Lane","Streatham","London","SW16","","Active","","1","1","TF",1
"CAMPB36","","Mr Kevin Stuart Summers & Mrs Emma Elizabeth","","36 Campbell Close","Mitcham Lane","Streatham","London","SW16","","Reminder Sent","CAMPBE","","Campbell Close, 17-44","Martin Hellenas","CAMPB36","","36 Campbell Close","36 Campbell Close","Mitcham Lane","Streatham","London","SW16","","Active","","1","1","TF",1
"CAMPB37","","Mrs P Lucas","","37 Campbell Close","Mitcham Lane","Streatham","London","SW16","","Current","CAMPBE","","Campbell Close, 17-44","Martin Hellenas","CAMPB37","","37 Campbell Close","37 Campbell Close","Mitcham Lane","Streatham","London","SW16","","Active","","1","1","TF",1
"CAMPB38","","Mr M Saeed","","38 Campbell Close","Mitcham Lane","Streatham","London","SW16","","Reminder Sent","CAMPBE","","Campbell Close, 17-44","Martin Hellenas","CAMPB38","","38 Campbell Close, Streatham","38 Campbell Close","Mitcham Lane","Streatham","London","SW16","","Active","","1","1","TF",1
"CAMPB39","","Miss N M Davies","","39 Campbell Close","Mitcham Lane","Streatham","London","SW16","","Current","CAMPBE","","Campbell Close, 17-44","Martin Hellenas","CAMPB39","","39 Campbell Close","39 Campbell Close","Mitcham Lane","Streatham","London","SW16","","Active","","1","1","TF",1
"CAMPB40","","Mr J.W.C Phillips and Mrs. A. Phillips","","40 Campbell Close","Mitcham Lane","Streatham","London","SW16","","Reminder Sent","CAMPBE","","Campbell Close, 17-44","Martin Hellenas","CAMPB40","","40 Campbell Close","40 Campbell Close","Mitcham Lane","Streatham","London","SW16","","Active","","1","1","TF",1
"CAMPB41","","Sarah Jane Mockford","","41 Campbell Close","LONDON","","","","SW16 6NJ","Current","CAMPBE","","Campbell Close, 17-44","Martin Hellenas","CAMPB41","","41 Campbell Close","41 Campbell Close","Mitcham Lane","Streatham","London","SW16","","Active","","1","1","TF",1
"CAMPB42","","Mrs G Rodrigues","","42 Campbell Close","Mitcham Lane","Streatham","London","SW16","","Reminder Sent","CAMPBE","","Campbell Close, 17-44","Martin Hellenas","CAMPB42","","42 Campbell Close","42 Campbell Close","Mitcham Lane","Streatham","London","SW16","","Active","","1","1","TF",1
"CAMPB43","","Zarqa Sohail & Imran Sohail","","45 Conifer Gardens","London","","","","SW16 2TY","Current","CAMPBE","","Campbell Close, 17-44","Martin Hellenas","CAMPB43","","43 Campbell Close","43 Campbell Close","Mitcham Lane","Streatham","London","","SW16 2TY","Active","","1","1","TF",1
"CAMPB44","","Ms S Lack","","44 Cambell Close","Mitcham Lane","London","","","SW16 6NJ","Debt Collect","CAMPBE","","Campbell Close, 17-44","Martin Hellenas","CAMPB44","","44 Campbell Close","44 Campbell Close","Mitcham Lane","Streatham","London","SW16","","Active","","1","1","TF",1
"MEWS01","","Dr D P Suri","","c/o Mr Wilson The Accountant","70A Milton Park","LONDON","","","N6 5PZ","Current","CLAPH","","Mews, The","Kimberley Gould","MEWS01","","1 The Mews, 424 Clapham Road","c/o Mr Wilson The Accountant","70A Milton Park","LONDON","","","N6 5PZ","Active","","1","1","TF",1
"MEWS02","","Matthew I. Duffy","","Flat 2 The Mews","424 Clapham Road","Clapham","London","","SW9 9DA","Current","CLAPH","","Mews, The","Kimberley Gould","MEWS02","","2 The Mews, 424 Clapham Road","Flat 2 The Mews","424 Clapham Road","Clapham","London","","SW9 9DA","Active","","1","1","TF",1
"MEWS03","","Mr T J Dancer","","Flat 3 The Mews","424 Clapham Road","Clapham","London","","SW9 9DA","Current","CLAPH","","Mews, The","Kimberley Gould","MEWS03","","3 The Mews, 424 Clapham Road","Flat 3 The Mews","424 Clapham Road","Clapham","London","","SW9 9DA","Active","","1","1","TF",1
"MEWS04","","Mrs E Roberts","","17 Osbourne Road","Bridport","","","","DT6 3AN","Current","CLAPH","","Mews, The","Kimberley Gould","MEWS04","","4 The Mews, 424 Clapham Road","17 Osbourne Road","Bridport","","","","DT6 3AN","Active","","1","1","TF",1
"MEWS05","","Andrew Paul Clarke","","Flat 5","The Mews","424 Clapham Road","London","","SW9 9DA","Current","CLAPH","","Mews, The","Kimberley Gould","MEWS05","","5 The Mews, 424 Clapham Road","Flat 5","The Mews","424 Clapham Road","London","","SW9 9DA","Active","","1","1","TF",1
"MEWS06","","Mr Y Takagi","","Flat 6, The Mews","424 Clapham Road","London","","","SW9 9DA","Current","CLAPH","","Mews, The","Kimberley Gould","MEWS06","","6 The Mews, 424 Clapham Road","Flat 6, The Mews","424 Clapham Road","London","","","SW9 9DA","Active","","1","1","TF",1
"MEWS07","","Mrs A Salisbury","","18 Basing Way","Thames Ditton","Surrey","","","KT7 0NX","StandingOrder","CLAPH","","Mews, The","Kimberley Gould","MEWS07","","7 The Mews, 424 Clapham Road","18 Basing Way","Thames Ditton","Surrey","","","KT7 0NX","Active","","1","1","TF",1
"MEWS08","","Mr R J Hall","","8 The Mews","424 Clapham Road","Clapham","London","","SW9 9DA","StandingOrder","CLAPH","","Mews, The","Kimberley Gould","MEWS08","","8 The Mews, 424 Clapham Road","8 The Mews","424 Clapham Road","Clapham","London","","SW9 9DA","Active","","1","1","TF",1
"MEWS97","","The Owner","","97 Gauden Road","","","London","","SW4 6LE","Current","CLAPH","","Mews, The","Kimberley Gould","MEWS97","","97 Gauden Road","97 Gauden Road","","","London","","SW4 6LE","Active","","1","1","TF",1
"MEWS98","","The Owner","","99 Gauden Road","","","London","","SW4 6LE","Uncollectable","CLAPH","","Mews, The","Kimberley Gould","MEWS98","","99 Gauden Road","99 Gauden Road","","","London","","SW4 6LE","Active","","1","1","TF",1
"CLARE01","","Paolo Ignazio Condello","","Flat 1 Claremont Court","St James Road","Surbiton","Surrey","","KT6 4QP","Current","CLARE","","Claremont Ct & St James Ct","Kimberley Gould","CLARE01","","1 Claremont Court","Flat 1 Claremont Court","St James Road","Surbiton","Surrey","","KT6 4QP","Active","","1","1","TF",1
"CLARE02","","Mr J A Greenaway & Mr P J Greenaway","","2 Clermont Court","St James Road","Subiton","","","KT6 4QP","Current","CLARE","","Claremont Ct & St James Ct","Kimberley Gould","CLARE02","","2 Claremont Court","2 Clermont Court","St James Road","Subiton","","","KT6 4QP","Active","","1","1","TF",1
"CLARE03","","Jonathan P. Weedon & Katalin G. Weedon","","77 Summer Road","Thames Ditton","","Surrey","","KT7 0QW","Current","CLARE","","Claremont Ct & St James Ct","Kimberley Gould","CLARE03","","3 Claremont Court","3 Claremont Court","St James Road","Surbiton","Surrey","","KT6 4QP","Active","","1","1","TF",1
"CLARE04","","Mr P A Jacobs","","32 Oak Avenue","Worcester Park","","Surrey","","KT4 8XD","Current","CLARE","","Claremont Ct & St James Ct","Kimberley Gould","CLARE04","","4 Claremont Court","4 Claremont Court","Claremont Ct & St James Ct","Claremont Road","Surbiton, Surrey","","KT6 4QP","Active","","1","1","TF",1
"CLARE05","","Mr N Barr","","5 Claremont Court","St James Road","Surbiton","Surrey","","KT6 4QP","StandingOrder","CLARE","","Claremont Ct & St James Ct","Kimberley Gould","CLARE05","","5 Claremont Court","5 Claremont Court","St James Road","Surbiton","Surrey","","KT6 4QP","Active","","1","1","TF",1
"CLARE06","","Crownbox Limited","","3 Jillian Court","19 Adelaide Road","Surbiton","Surrey","","KT6 4SY","Debt Collect","CLARE","","Claremont Ct & St James Ct","Kimberley Gould","CLARE06","","6 Claremont Court","c/o Mr D R Medcalf","3 Jillian Court","19 Adelaide Road","Surbiton","Surrey","KT6 4SY","Active","","1","1","TF",1
"CLARE07","","Mr A J Skipsey","","34 Forest Side","Worcester Park","Surrey","","","KT4 7PB","Debt Collect","CLARE","","Claremont Ct & St James Ct","Kimberley Gould","CLARE07","","7 Claremont Court","Flat 7 Claremont Court","St James Road","Surbiton","Surrey","","KT6 4QP","Active","","1","1","TF",1
"CLARE08","","Toby Litton Hill & Sarah Trout","","Flat 8 Claremont Court","St James Road","Surbiton","Surrey","","KT6 4QP","Current","CLARE","","Claremont Ct & St James Ct","Kimberley Gould","CLARE08","","8 Claremont Court","Flat 8 Claremont Court","St James Road","Surbiton","Surrey","","KT6 4QP","Active","","1","1","TF",1
"CLARE09","","Martin Searle & Gillian Susan Searle","","Flat 9 Claremont Court","St James Road","Surbiton","Surrey","","KT6 4QP","Current","CLARE","","Claremont Ct & St James Ct","Kimberley Gould","CLARE09","","9 Claremont Court","Flat 9 Claremont Court","St James Road","Surbiton","Surrey","","KT6 4QP","Active","","1","1","TF",1
"CLARE10","","Ben Saunders","","Flat 10 Claremont Court","St James Road","Surbiton","Surrey","","KT6 4QP","Current","CLARE","","Claremont Ct & St James Ct","Kimberley Gould","CLARE10","","10 Claremont Court","Flat 10 Claremont Court","St James Road","Surbiton","Surrey","","KT6 4QP","Active","","1","1","TF",1
"CLARE11","","Kay Ann-Ribeiro","","Flat 11 Claremont Court","St James Road","Surbiton","Surrey","","KT6 4QP","Current","CLARE","","Claremont Ct & St James Ct","Kimberley Gould","CLARE11","","11 Claremont Court","Flat 11 Claremont Court","St James Road","Surbiton","Surrey","","KT6 4QP","Active","","1","1","TF",1
"STJAM01","","Mr A P Haren","","1 St James Court","St James Road","Surbiton","Surrey","","KT6 4QW","Current","CLARE","","Claremont Ct & St James Ct","Kimberley Gould","STJAM01","","1 St James Court","1 St James Court","St James Road","Surbiton","Surrey","","KT6 4QW","Active","","1","1","TF",1
"STJAM02","","Mr G Ingram","","2 St James Court","St James Road","Surbiton","Surrey","","KT6 4QW","Current","CLARE","","Claremont Ct & St James Ct","Kimberley Gould","STJAM02","","2 St James Court","2 St James Court","St James Road","Surbiton","Surrey","","KT6 4QW","Active","","1","1","TF",1
"STJAM03","","IRD International Realty Dealing Corporation","","c/o Grovehigh Limited","26 Cedra Court","Cazenove Road","London","","N16 6AT","Current","CLARE","","Claremont Ct & St James Ct","Kimberley Gould","STJAM03","","3 St James Court","3 St James Court","St James Road","Surbiton","Surrey","","KT6 4QW","Active","","1","1","TF",1
"STJAM04","","Regis Group (Nationwide) Ltd.","","16-18 Warrior Square","Southend on Sea","Essex","","","SS1 2WS","Current","CLARE","","Claremont Ct & St James Ct","Kimberley Gould","STJAM04","","4 St James Court","16-18 Warrior Square","Southend on Sea","Essex","","","SS1 2WS","Active","","1","1","TF",1
"STJAM05","","Dr Sheldon","","Chevron Properties PLC","Chevron Properties PLC","Apt 3491","8135 Almancil","PORTUGAL","","StandingOrder","CLARE","","Claremont Ct & St James Ct","Kimberley Gould","STJAM05","","5 St James Court","Chevron Properties PLC","Chevron Properties PLC","Apt 3491","8135 Almancil","PORTUGAL","","Active","","1","1","TF",1
"STJAM06","","Mr N P Grace","","6 St James Court","St James Road","Surbiton","Surrey","","KT6 4QW","Current","CLARE","","Claremont Ct & St James Ct","Kimberley Gould","STJAM06","","6 St James Court","6 St James Court","St James Road","Surbiton","Surrey","","KT6 4QW","Active","","1","1","TF",1
"STJAM07","","Mr D J Yates","","The Crowborough Cross","Beacon Road","Crowborough","E.Sussex","","","StandingOrder","CLARE","","Claremont Ct & St James Ct","Kimberley Gould","STJAM07","","7 St James Court","7 St James Court","St James Road","Surbiton","Surrey","","KT6 4QW","Active","","1","1","TF",1
"STJAM08","","Robert A Holliman 7 Tetyana Holliman","","Flat 8 St James Court","St James Road","Surbiton","Surrey","","KT6 4QW","Current","CLARE","","Claremont Ct & St James Ct","Kimberley Gould","STJAM08","","8 St James Court","Flat 8 St James Court","St James Road","Surbiton","Surrey","","KT6 4QW","Active","","1","1","TF",1
"STJAM09","","Mr A Marr","","9 St James Court","St James Road","Surbiton","Surrey","","KT6 4QW","Payment Plan","CLARE","","Claremont Ct & St James Ct","Kimberley Gould","STJAM09","","9 St James Court","9 St James Court","St James Road","Surbiton","Surrey","","KT6 4QW","Active","","1","1","TF",1
"STJAM10","","Ms Chantel Andrews & Mr Paul R Glancy","","83 Ditton Road","Surbiton","Surrey","","","KT6 6RJ","Current","CLARE","","Claremont Ct & St James Ct","Kimberley Gould","STJAM10","","10 St James Court","10 St James Court","St James Road","Surbiton","Surrey","","KT6 4QW","Active","","1","1","TF",1
"STJAM11","","Mr D A Hickey and Ms A R Lovell","","11 St James Court","St James Road","Surbiton","Surrey","","KT6 4QW","Current","CLARE","","Claremont Ct & St James Ct","Kimberley Gould","STJAM11","","11 St James Court","11 St James Court","St James Road","Surbiton","Surrey","","KT6 4QW","Active","","1","1","TF",1
"STJAM12","","Timothy Cruddas & Lucia Cruddas","","12 St James Court","St James Road","Surbiton","Surrey","","KT6 4QW","Reminder Sent","CLARE","","Claremont Ct & St James Ct","Kimberley Gould","STJAM12","","12 St James Court","12 St James Court","St James Road","Surbiton","Surrey","","KT6 4QW","Active","","1","1","TF",1
"STJAM13","","Kristina Bottrall","","13 St James Court","St James Road","Surbiton","Surrey","","KT6 4QW","Current","CLARE","","Claremont Ct & St James Ct","Kimberley Gould","STJAM13","","13 St James Court","13 St James Court","St James Road","Surbiton","Surrey","","KT6 4QW","Active","","1","1","TF",1
"STJAM14","","Jacob Richard Potter","","14 St James Court","St James Road","Surbiton","Surrey","","KT6 4QW","Current","CLARE","","Claremont Ct & St James Ct","Kimberley Gould","STJAM14","","14 St James Court","14 St James Court","St James Road","Surbiton","Surrey","","KT6 4QW","Active","","1","1","TF",1
"STJAM15","","Joshua Stephen Salter","","15 St James Court","St James Road","Surbiton","Surrey","","KT6 4QW","Current","CLARE","","Claremont Ct & St James Ct","Kimberley Gould","STJAM15","","15 St James Court","15 St James Court","St James Road","Surbiton","Surrey","","KT6 4QW","Active","","1","1","TF",1
"STJAM16","","Mark Raymond Evans","","16 St James Court","St James Road","Surbiton","Surrey","","KT6 4QW","On Hold - PM","CLARE","","Claremont Ct & St James Ct","Kimberley Gould","STJAM16","","16 St James Court","16 St James Court","St James Road","Surbiton","Surrey","","KT6 4QW","Active","","1","1","TF",1
"GRANG01","","Mr Andrew Vincent & Victoria Claire Vincent","","47 Netherby Park","Weybridge","Surrey","KT13 0AG","","","Current","GRANG","","Grange Court,  1-15","Kimberley Gould","GRANG01","","1 Grange Court","1 Grange Court","Grange Road","Sutton","","","SM2 6RR","Active","","1","1","TF",1
"GRANG02","","Mr G Ward","","49 Sandy Lane","Cheam","Surrey","","","SM2 7EN","Current","GRANG","","Grange Court,  1-15","Kimberley Gould","GRANG02","","2 Grange Court","49 Sandy Lane","Cheam","Surrey","","","SM2 7EN","Active","","1","1","TF",1
"GRANG03","","Paul Gerald West","","7 Old Oak Avenue","Chipstead","Couldson","Surrey","","CR5 3PG","Current","GRANG","","Grange Court,  1-15","Kimberley Gould","GRANG03","","3 Grange Court","Flat 3 Grange Court","Grange Road","Sutton","","","SM2 6RR","Active","","1","1","TF",1
"GRANG04","","Mrs Keeley","","4 Grange Court","Grange Road","Sutton","Surrey","","SM2 6RR","Current","GRANG","","Grange Court,  1-15","Kimberley Gould","GRANG04","","4 Grange Court","4 Grange Court","Grange Road","Sutton","Surrey","","SM2 6RR","Active","","1","1","TF",1
"GRANG05","","Miss A Smith","","70 Grangemoor Court","Dunleavy Drive","Cardiff","","","CF11 0AB","StandingOrder","GRANG","","Grange Court,  1-15","Kimberley Gould","GRANG05","","5 Grange Court","5 Grange Court","Grange Road","SUTTON","Surrey","","SM2 6RR","Active","","1","1","TF",1
"GRANG06","","Miss M Grant","","6 Grange Court","Grange Road","Sutton","Surrey","","SM2 6RR","StandingOrder","GRANG","","Grange Court,  1-15","Kimberley Gould","GRANG06","","6 Grange Court","6 Grange Court","Grange Road","Sutton","Surrey","","SM2 6RR","Active","","1","1","TF",1
"GRANG07","","Mr M & Mrs P Blow","","7 Grange Court","Grange Road","Sutton","Surrey","","SM2 6RR","Current","GRANG","","Grange Court,  1-15","Kimberley Gould","GRANG07","","7 Grange Court","7 Grange Court","Grange Road","Sutton","Surrey","","SM2 6RR","Active","","1","1","TF",1
"GRANG08","","Mrs E Clarke","","8 Grange Court","Grange Road","Sutton","Surrey","","SM2 6RR","Current","GRANG","","Grange Court,  1-15","Kimberley Gould","GRANG08","","8 Grange Court","8 Grange Court","Grange Road","Sutton","Surrey","","SM2 6RR","Active","","1","1","TF",1
"GRANG09","","Mr & Mrs M J Pearce","","Red Lodge","99 Brighton Road","Sutton","Surrey","","SM2 5SJ","StandingOrder","GRANG","","Grange Court,  1-15","Kimberley Gould","GRANG09","","9 Grange Court","9 Grange Court","Grange Road","Sutton","Surrey","","SM2 6RR","Active","","1","1","TF",1
"GRANG10","","Mr Trevor Graham","","10 Grange Court","Grange Road","Sutton","Surrey","","SM2 6RR","On Hold - PM","GRANG","","Grange Court,  1-15","Kimberley Gould","GRANG10","","10 Grange Court","10 Grange Court","Grange Road","Sutton","Surrey","","SM2 6RR","Active","","1","1","TF",1
"GRANG11","","Mr M Maffei","","Flat 11 Grange Court","Sutton","Surrey","","","SM2 6RR","Uncollectable","GRANG","","Grange Court,  1-15","Kimberley Gould","GRANG11","","11 Grange Court","Flat 11 Grange Court","Sutton","Surrey","","","SM2 6RR","Active","","1","1","TF",1
"GRANG12","","Charles Dodson","","12 Grange Court","Grange Road","Sutton","Surrey","","SM2 6RR","Current","GRANG","","Grange Court,  1-15","Kimberley Gould","GRANG12","","12 Grange Court","12 Grange Court","Grange Road","Sutton","Surrey","","SM2 6RR","Active","","1","1","TF",1
"GRANG13","","Messrs J A & RS Nurse","","13 Grange Court","Grange Road","Sutton","Surrey","","SM2 6RR","StandingOrder","GRANG","","Grange Court,  1-15","Kimberley Gould","GRANG13","","13 Grange Court","13 Grange Court","Grange Road","Sutton","Surrey","","SM2 6RR","Active","","1","1","TF",1
"GRANG14","","Kirsty Elzabeth Money","","14 Grange Court","Grange Road","Sutton","Surrey","","SM2 6PR","On Hold - PM","GRANG","","Grange Court,  1-15","Kimberley Gould","GRANG14","","14 Grange Court","14 Grange Court","Grange Road","Sutton","Surrey","","SM2 6PR","Active","","1","1","TF",1
"GRANG15","","The Late Mr C J Constable","","C/o Close Goff Humphreys Solicitors","90 Park Street","Camberley              ref- TAL.SJ.CONSTABLE","Surrey","","GU15 3NY","On Hold - PM","GRANG","","Grange Court,  1-15","Kimberley Gould","GRANG15","","15 Grange Court","15 Grange Court","Grange Road","Sutton","Surrey","","SM2 6RR","Active","","1","1","TF",1
"GRANGG1","","Mr Mills","","","","","","","","Current","GRANG","","Grange Court,  1-15","Kimberley Gould","GRANGG1","","Garage 1, Grange Court","","","","","","","Active","","1","1","TF",1
"MILLG2401","","Mr A J Orridge","","Flat 1","24 Mill Green Road","Mitcham","Surrey","","CR4 4HY","Debt Collect","MILLG","","Mill Green Road, 24/26","Kimberley Gould","MILLG2401","","Flat 1, 24 Mill Green Road","Flat 1","24 Mill Green Road","Mitcham","Surrey","","CR4 4HY","Active","","1","1","TF",1
"MILLG2402","","Mr S Leigh","","c/o Flat 6","Turner Lodge","Windlesham Grove","London","","SW19 6AG","Reminder Sent","MILLG","","Mill Green Road, 24/26","Kimberley Gould","MILLG2402","","Flat 2, 24 Mill Green Road","Flat 2","24 Mill Green Road","Mitcham","Surrey","","CR4 4HY","Active","","1","1","TF",1
"MILLG2403","","Mr John Terence Thompson","","Flat 3","24 Mill Green Road","Mitcham","Surrey","","CR4 4HY","StandingOrder","MILLG","","Mill Green Road, 24/26","Kimberley Gould","MILLG2403","","Flat 3, 24 Mill Green Road","Flat 3","24 Mill Green Road","Mitcham","Surrey","","CR4 4HY","Active","","1","1","TF",1
"MILLG2404","","Miss A Pumfrey","","Flat 4","24 Mill Green Road","Mitcham","Surrey","","CR4 4HY","Reminder Sent","MILLG","","Mill Green Road, 24/26","Kimberley Gould","MILLG2404","","Flat 4, 24 Mill Green Road","Flat 4","24 Mill Green Road","Mitcham","Surrey","","CR4 4HY","Active","","1","1","TF",1
"MILLG2405","","Mr M S Keating","","Flat 5","24 Mill Green Road","Mitcham","Surrey","","CR4 4HY","Current","MILLG","","Mill Green Road, 24/26","Kimberley Gould","MILLG2405","","Flat 5, 24 Mill Green Road","Flat 5","24 Mill Green Road","Mitcham","Surrey","","CR4 4HY","Active","","1","1","TF",1
"MILLG2406","","Ms A. E Savizon","","Flat 6","24 Mill Green Road","Mitcham","Surrey","","CR4 4HY","Reminder Sent","MILLG","","Mill Green Road, 24/26","Kimberley Gould","MILLG2406","","Flat 6, 24 Mill Green Road","Flat 6","24 Mill Green Road","Mitcham","Surrey","","CR4 4HY","Active","","1","1","TF",1
"MILLG2407","","Mr R P Stewart","","Flat 7","24 Mill Green Road","Mitcham","Surrey","","CR4 4HY","Debt Collect","MILLG","","Mill Green Road, 24/26","Kimberley Gould","MILLG2407","","Flat 7, 24 Mill Green Road","Flat 7","24 Mill Green Road","Mitcham","Surrey","","CR4 4HY","Active","","1","1","TF",1
"MILLG2408","","Mr Malcolm Wreford Davies","","5 Chase Court","Amhurst Gardens","Isleworth","Middlesex","","TW7 6AH","Reminder Sent","MILLG","","Mill Green Road, 24/26","Kimberley Gould","MILLG2408","","Flat 8, 24 Mill Green Road","Flat 8, 24 Mill Green Road","Mitcham","Surrey","","","CR4 4HY","Active","","1","1","TF",1
"MILLG2409","","Mr M  and Mrs H Leong","","114 St James Road","Sutton","Surrey","","","SM1 2TT","StandingOrder","MILLG","","Mill Green Road, 24/26","Kimberley Gould","MILLG2409","","Flat 9, 24 Mill Green Road","Flat 9","24 Mill Green Road","Mitcham","Surrey","","CR4 4HY","Active","","1","1","TF",1
"MILLG2410","","Foxhill House Investments Limited","","c/o Ovalmere","110 Greyhound Lane","Streatham","London","","SW16 5RN","On Hold - PM","MILLG","","Mill Green Road, 24/26","Kimberley Gould","MILLG2410","","Flat 10, 24 Mill Green Road","Flat 10","24 Mill Green Road","Mitcham","Surrey","","CR4 4HY","Active","","1","1","TF",1
"MILLG2411","","Mrs P Grayston","","67 Briar Wood","Liskeard","Cornwall","","","PL14 3QQ","StandingOrder","MILLG","","Mill Green Road, 24/26","Kimberley Gould","MILLG2411","","Flat 11, 24 Mill Green Road","67 Briar Wood","Liskeard","Cornwall","","","PL14 3QQ","Active","","1","1","TF",1
"MILLG2412","","Mr S M Maule","","Flat 12","24 Mill Green Road","Mitcham","Surrey","","CR4 4HY","Current","MILLG","","Mill Green Road, 24/26","Kimberley Gould","MILLG2412","","Flat 12, 24 Mill Green Road","Flat 12","24 Mill Green Road","Mitcham","Surrey","","CR4 4HY","Active","","1","1","TF",1
"MILLG2413","","Mr Eustace Alphonso White","","Flat 13","24 Mill Green Road","Mitcham","Surrey","CR4","","Current","MILLG","","Mill Green Road, 24/26","Kimberley Gould","MILLG2413","","Flat 13, 24 Mill Green Road","Flat 13","24 Mill Green Road","Mitcham","Surrey","CR4","","Active","","1","1","TF",1
"MILLG2414","","Paul Randall & Esther Barker","","Flat 14","24 Mill Green Road","Mitcham","Surrey","","CR4 4HY","Reminder Sent","MILLG","","Mill Green Road, 24/26","Kimberley Gould","MILLG2414","","Flat 14, 24 Mill Green Road","Flat 14","24 Mill Green Road","Mitcham","Surrey","","CR4 4HY","Active","","1","1","TF",1
"MILLG2415","","Mrs J M Breese","","32 Victoria Road","Oswestrey","Shropshire","","","SY11 2HS","Current","MILLG","","Mill Green Road, 24/26","Kimberley Gould","MILLG2415","","Flat 15, 24 Mill Green Road","32 Victoria Road","Oswestrey","Shropshire","","","SY11 2HS","Active","","1","1","TF",1
"MILLG2416","","Mr Vasco Fernando Cardoso & Ms M Ramalhoto","","Flat 16","24 Mill Green Road","Mitcham","Surrey","","CR4 4HY","Reminder Sent","MILLG","","Mill Green Road, 24/26","Kimberley Gould","MILLG2416","","Flat 16, 24 Mill Green Road","Flat 16","24 Mill Green Road","Mitcham","Surrey","","CR4 4HY","Active","","1","1","TF",1
"MILLG2601","","Ms T H Phillpot","","Flat 1","26 Mill Green Road","Mitcham","Surrey","","CR4 4HY","Uncollectable","MILLG","","Mill Green Road, 24/26","Kimberley Gould","MILLG2601","","Flat 1, 26 Mill Green Road","Flat 1","26 Mill Green Road","Mitcham","Surrey","","CR4 4HY","Active","","1","1","TF",1
"MILLG2602","","Mr Malcolm Wreford Davies","","5 Chase Court","Amhurst Gardens","Isleworth","Middlesex","","TW7 6AH","Reminder Sent","MILLG","","Mill Green Road, 24/26","Kimberley Gould","MILLG2602","","Flat 2, 26 Mill Green Road","Flat 2, 26 Mill Green Road","Mitcham","Surrey","","","CR4 4HY","Active","","1","1","TF",1
"MILLG2603","","Mr David John King","","6 Kings Avenue","Carshalton Beeches","Surrey","","","SM5 4NX","Payment Plan","MILLG","","Mill Green Road, 24/26","Kimberley Gould","MILLG2603","","Flat 3, 26 Mill Green Road","6 Kings Avenue","Carshalton Beeches","Surrey","","","SM5 4NX","Active","","1","1","TF",1
"MILLG2604","","Miss C Pearce","","Flat 4","26 Mill Green Road","Mitcham","Surrey","","CR4 4HY","Current","MILLG","","Mill Green Road, 24/26","Kimberley Gould","MILLG2604","","Flat 4, 26 Mill Green Road","Flat 4","26 Mill Green Road","Mitcham","Surrey","","CR4 4HY","Active","","1","1","TF",1
"MILLG2605","","Paul William Murray","","Flat 5","26 Mill Green Road","Mitcham","Surrey","","CR4 4HY","Current","MILLG","","Mill Green Road, 24/26","Kimberley Gould","MILLG2605","","Flat 5, 26 Mill Green Road","Flat 5","26 Mill Green Road","Mitcham","Surrey","","CR4 4HY","Active","","1","1","TF",1
"MILLG2606","","G C L Augustin and I M Augustin","","353 Thornton Road","Croydon","","","","CR0 3EZ","Current","MILLG","","Mill Green Road, 24/26","Kimberley Gould","MILLG2606","","Flat 6, 26 Mill Green Road","Flat 6","26 Mill Green Road","Mitcham","Surrey","","CR4 4HY","Active","","1","1","TF",1
"MILLG2607","","Mr S E Brown","","Flat 7","26 Mill Green Road","Mitcham","Surrey","","CR4 4HY","Reminder Sent","MILLG","","Mill Green Road, 24/26","Kimberley Gould","MILLG2607","","Flat 7, 26 Mill Green Road","Flat 7","26 Mill Green Road","Mitcham","Surrey","","CR4 4HY","Active","","1","1","TF",1
"MILLG2608","","Mr M Porter","","Flat 8","26 Mill Green Road","Mitcham","Surrey","","CR4 4HY","Current","MILLG","","Mill Green Road, 24/26","Kimberley Gould","MILLG2608","","Flat 8, 26 Mill Green Road","Flat 8","26 Mill Green Road","Mitcham","Surrey","","CR4 4HY","Active","","1","1","TF",1
"MILLG2609","","Mr A Smithson","","Flat 9","26 Mill Green Road","Mitcham","Surrey","","CR4 4HY","Current","MILLG","","Mill Green Road, 24/26","Kimberley Gould","MILLG2609","","Flat 9, 26 Mill Green Road","Flat 9","26 Mill Green Road","Mitcham","Surrey","","CR4 4HY","Active","","1","1","TF",1
"MILLG2610","","Mr Christopher Duncan Legg","","Flat 10, 26 Mill Green Road","Mitcham","Surrey","","","CR4 4HY","Current","MILLG","","Mill Green Road, 24/26","Kimberley Gould","MILLG2610","","Flat 10, 26 Mill Green Road","Flat 10, 26 Mill Green Road","Mitcham","Surrey","","","CR4 4HY","Active","","1","1","TF",1
"MILLG2611","","Ms S D Bell","","10 Devonshire Road","Sutton","Surrey","","","SM2 5HQ","Current","MILLG","","Mill Green Road, 24/26","Kimberley Gould","MILLG2611","","Flat 11, 26 Mill Green Road","10 Devonshire Road","Sutton","Surrey","","","SM2 5HQ","Active","","1","1","TF",1
"MILLG2612","","Mr K K Holder","","Flat 12","26 Mill Green Road","Mitcham","Surrey","","CR4 4HY","Current","MILLG","","Mill Green Road, 24/26","Kimberley Gould","MILLG2612","","Flat 12, 26 Mill Green Road","Flat 12","26 Mill Green Road","Mitcham","Surrey","","CR4 4HY","Active","","1","1","TF",1
"OVERT01","","Mr M J Haswell and Mrs G H Baker","","1 Overton Court","38 Overton Road","Sutton","Surrey","","SM2 6QS","StandingOrder","OVERT","","Overton Court","Kimberley Gould","OVERT01","","1 Overton Court","1 Overton Court","38 Overton Road","Sutton","Surrey","","SM2 6QS","Active","","1","1","TF",1
"OVERT02","","Ms H Keyes-Evans","","2 Overton Court","38 Overton Road","Sutton","Surrey","","SM2 6QS","StandingOrder","OVERT","","Overton Court","Kimberley Gould","OVERT02","","2 Overton Court","2 Overton Court","38 Overton Road","Sutton","Surrey","","SM2 6QS","Active","","1","1","TF",1
"OVERT03","","Mr D Cunningham and Ms L C Cunningham","","3 Overton Court","38 Overton Road","Sutton","Surrey","","SM2 6QS","StandingOrder","OVERT","","Overton Court","Kimberley Gould","OVERT03","","3 Overton Court","3 Overton Court","38 Overton Road","Sutton","Surrey","","SM2 6QS","Active","","1","1","TF",1
"OVERT04","","Miss Rebecca . J. Rogers","","Mill Pond Cottage","3 Mill Road","Dunton Green","Sevenoaks",""," TN13 2UZ","StandingOrder","OVERT","","Overton Court","Kimberley Gould","OVERT04","","4 Overton Court","4 Overton Court","38 Overton Road","Sutton","Surrey","","SM2 6QS","Active","","1","1","TF",1
"OVERT05","","Ms S Nishiyama","","5 Overton Court","38 Overton Road","Sutton","Surrey","","SM2 6QS","Current","OVERT","","Overton Court","Kimberley Gould","OVERT05","","5 Overton Court","5 Overton Court","38 Overton Road","Sutton","Surrey","","SM2 6QS","Active","","1","1","TF",1
"OVERT06","","Mr & Mrs M Puri","","25 Drumaline Ridge","Worcester Park","Surrey","","","KT4 7JT","Current","OVERT","","Overton Court","Kimberley Gould","OVERT06","","6 Overton Court","25 Drumaline Ridge","Worcester Park","Surrey","","","KT4 7JT","Active","","1","1","TF",1
"VELLU03","","Mr.& Mrs. Yianni","","44 Rue De Bayeux","Port En Bessin","14520, Huppain","Normandie","","France","StandingOrder","VELLU","","Vellum Drive, 3-8","Kimberley Gould","VELLU03","","3 Vellum Drive","The Old Boat House","30A Millbrook","Guilford","GU1 3 XJ","","","Active","","1","1","TF",1
"VELLU04","","Mrs M Andrews","","17 Rosehill Park West","Sutton","Surrey","","","SM1 3LA","StandingOrder","VELLU","","Vellum Drive, 3-8","Kimberley Gould","VELLU04","","4 Vellum Drive","300 Collingwood Road","Sutton","Surrey","","","SM1 2NX","Active","","1","1","TF",1
"VELLU05","","Ms L Farley","","126 Queen Elizabeth Drive","Swindon","Wiltshire","","","SN25 1XA","StandingOrder","VELLU","","Vellum Drive, 3-8","Kimberley Gould","VELLU05","","5 Vellum Drive","5 Vellum Drive","3-8 Vellum Drive","Butter Hill","Carshalton","","SM5 2TL","Active","","1","1","TF",1
"VELLU06","","Mr J W & Mrs J Eggleton","","Le Champ Masse","Coudehard","Trun","France","61160","","Reminder Sent","VELLU","","Vellum Drive, 3-8","Kimberley Gould","VELLU06","","6 Vellum Drive","Le Champ Masse","Coudehard","Trun","France","61160","","Active","","1","1","TF",1
"VELLU07","","Miss Alison Kar-Yin Pantin","","7 Vellum Drive","Butter Hill","Carshalton","","","SM5 2TL","Current","VELLU","","Vellum Drive, 3-8","Kimberley Gould","VELLU07","","7 Vellum Drive","7 Vellum Drive","Butter Hill","Carshalton","","","SM5 2TL","Active","","1","1","TF",1
"VELLU08","","Mr & Mrs M J Aynsley","","77 Warnham Court Road","Carshalton Beeches","Surrey","","","SM5 3ND","Current","VELLU","","Vellum Drive, 3-8","Kimberley Gould","VELLU08","","8 Vellum Drive","8 Vellum Drive","Butter Hill","Carshalton","Surrey","","SM5 2TL","Active","","1","1","TF",1
"VELLU13","","Mr J W Eggleton","","Le Champ Masse","Coudehard","61160 Trun","FRANCE","","","Current","VELLU02","","Vellum Drive 13 - 18","Kimberley Gould","VELLU13","","13 Vellum Drive","13 Vellum Drive","Carshalton","Surrey","","","SM5 2TL","Active","","1","1","TF",1
"VELLU14","","Mr J W Eggleton","","Le Champ Masse","Coudehard","61160 Trun","FRANCE","","","Current","VELLU02","","Vellum Drive 13 - 18","Kimberley Gould","VELLU14","","14 Vellum Drive","14 Vellum Drive","Carshalton","Surrey","","","SM5 2TL","Active","","1","1","TF",1
"VELLU15","","Mr R Addison","","188 Craddocks Avenue","Ashtead","Surrey","","","KT12 1NX","Current","VELLU02","","Vellum Drive 13 - 18","Kimberley Gould","VELLU15","","15 Vellum Drive","15 Vellum Drive","Carshalton","Surrey","","","SM5 2TL","Active","","1","1","TF",1
"VELLU16","","Mr J W Eggleton","","Le Champ Masse","Coudehard","61160 Trun","FRANCE","","","Current","VELLU02","","Vellum Drive 13 - 18","Kimberley Gould","VELLU16","","16 Vellum Drive","16 Vellum Drive","Carshalton","Surrey","","","SM5 2TL","Active","","1","1","TF",1
"VELLU17","","Mr Philip Kin Spencer","","17 Vellum Drive","13-18 Vellum Drive","Carshalton","Surrey","","SM5 2TL","Current","VELLU02","","Vellum Drive 13 - 18","Kimberley Gould","VELLU17","","17 Vellum Drive","17 Vellum Drive","13-18 Vellum Drive","Carshalton","Surrey","","SM5 2TL","Active","","1","1","TF",1
"VELLU18","","Mr S Francis","","18 Vellum Drive","Carshalton","Surrey","","","SM5 2TL","Current","VELLU02","","Vellum Drive 13 - 18","Kimberley Gould","VELLU18","","18 Vellum Drive","18 Vellum Drive","Carshalton","Surrey","","","SM5 2TL","Active","","1","1","TF",1
"WILFR01","","Ms M Sivasupramanian","","1 Wilfred Owen Close","Tennyson Road","Wimbledon","","","SW19 8SW","Current","WILFR","","Wilfred Owen Close","Kimberley Gould","WILFR01","","1 Wilfred Owen Close","1 Wilfred Owen Close","Tennyson Road","Wimbledon","","","SW19 8SW","Active","","1","1","TF",1
"WILFR02","","Patricia O'Gorman & Sally Ann O'Gorman","","2 Wilfred Owen Close","Tennyson Road","Wimbledon","London","","SW19 8SW","Current","WILFR","","Wilfred Owen Close","Kimberley Gould","WILFR02","","2 Wilfred Owen Close","2 Wilfred Owen Close","Tennyson Road","Wimbledon","London","","SW19 8SW","Active","","1","1","TF",1
"WILFR03","","Ms E A O'Mahony","","3 Wilfred Owen Close","Tennyson Road","Wimbledon","London","","SW19 8SW","Current","WILFR","","Wilfred Owen Close","Kimberley Gould","WILFR03","","3 Wilfred Owen Close","3 Wilfred Owen Close","Tennyson Road","Wimbledon","London","","SW19 8SW","Active","","1","1","TF",1
"WILFR04","","Miss S E White & Mr M Mulligan","","Flat 4","Wilfred Owen Close","Tennyson Road","London","","SW19 8SW","Current","WILFR","","Wilfred Owen Close","Kimberley Gould","WILFR04","","4 Wilfred Owen Close","Flat 4","Wilfred Owen Close","Tennyson Road","London","","SW19 8SW","Active","","1","1","TF",1
"WILFR05","","Mr P T & Mr M Runge","","Flat 5","Wilfred Owen Close","Tennison Road","London","","SW19 8SW","StandingOrder","WILFR","","Wilfred Owen Close","Kimberley Gould","WILFR05","","5 Wilfred Owen Close","Flat 5","Wilfred Owen Close","Tennison Road","London","","SW19 8SW","Active","","1","1","TF",1
"WILFR06","","Mr N D Barron & M Nagi","","Apartment 2, 197 Clinton Street","Brooklyn","New York 11201","USA","","","Current","WILFR","","Wilfred Owen Close","Kimberley Gould","WILFR06","","6 Wilfred Owen Close","6 Wilfred Owen Close","Tennyson Road","Wimbledon","London","","SW19 8SW","Active","","1","1","TF",1
"WILFR07","","Mr M J Canavan","","7 Wilfred Owen Close","Tennyson Road","Wimbledon","London","","SW19 8SW","StandingOrder","WILFR","","Wilfred Owen Close","Kimberley Gould","WILFR07","","7 Wilfred Owen Close","7 Wilfred Owen Close","Tennyson Road","Wimbledon","London","","SW19 8SW","Active","","1","1","TF",1
"WILFR08","","Mr Dave Freeman","","Dormers","Bury Lane","Horsell, Woking","Surrey","","GU21 4RT","Current","WILFR","","Wilfred Owen Close","Kimberley Gould","WILFR08","","8 Wilfred Owen Close","8 Wilfred Owen Close","Tennyson Road","Wimbledon","London","","SW19 8SW","Active","","1","1","TF",1
"WILFR09","","Ms J Davey","","9 Wilfred Owen Close","Tennyson Road","Wimbledon","London","","SW19 8SW","Current","WILFR","","Wilfred Owen Close","Kimberley Gould","WILFR09","","9 Wilfred Owen Close","9 Wilfred Owen Close","Tennyson Road","Wimbledon","London","","SW19 8SW","Active","","1","1","TF",1
"WILFR10","","Mr Graeme Douglas Austin Cobb","","10 Wilfred Owen Close","Tennyson Road","Wimbledon","","","SW19 8SW","Current","WILFR","","Wilfred Owen Close","Kimberley Gould","WILFR10","","10 Wilfred Owen Close","10 Wilfred Owen Close","Tennyson Road","Wimbledon","","","SW19 8SW","Active","","1","1","TF",1
"WILFR11","","Mr G F Bush","","11 Wilfred Owen Close","Tennyson Road","Wimbledon","London","","SW19 8SW","Current","WILFR","","Wilfred Owen Close","Kimberley Gould","WILFR11","","11 Wilfred Owen Close","11 Wilfred Owen Close","Tennyson Road","Wimbledon","London","","SW19 8SW","Active","","1","1","TF",1
"WILFR12","","D, S & S Banerjee","","1d Montague Road","London","","","","SW19 1TB","Current","WILFR","","Wilfred Owen Close","Kimberley Gould","WILFR12","","12 Wilfred Owen Close","12 Wilfred Owen Close","Tennyson Road","Wimbledon","","","SW19 8SW","Active","","1","1","TF",1
"WILFR13","","Mr A Daszeswki","","13 Wilfred Owen Close","Tennyson Close","Wimbledon","London","","SW19 8SW","Current","WILFR","","Wilfred Owen Close","Kimberley Gould","WILFR13","","13 Wilfred Owen Close","13 Wilfred Owen Close","Tennyson Close","Wimbledon","London","","SW19 8SW","Active","","1","1","TF",1
"WILFR14","","Miss S Lyde","","14 Wilfred Owen Close","Tennyson Road","Wimbledon","London","","SW19 8SW","Current","WILFR","","Wilfred Owen Close","Kimberley Gould","WILFR14","","14 Wilfred Owen Close","14 Wilfred Owen Close","Tennyson Road","Wimbledon","London","","SW19 8SW","Active","","1","1","TF",1
"WILFR15","","Miss M Malen","","15 Wilfred Owen Close","Tennyson Road","Wimbledon","London","","SW19 8SW","Current","WILFR","","Wilfred Owen Close","Kimberley Gould","WILFR15","","15 Wilfred Owen Close","15 Wilfred Owen Close","Tennyson Road","Wimbledon","London","","SW19 8SW","Active","","1","1","TF",1
"WILFR16","","Mr N Dickson","","8 Brooklands Avenue","Wimbledon Park","London","","","SW19 8ER","Current","WILFR","","Wilfred Owen Close","Kimberley Gould","WILFR16","","16 Wilfred Owen Close","16 Wilfred Owen Close","Tennyson Road","Wimbledon","London","","SW19 8SW","Active","","1","1","TF",1
"YORK14","","Guy Milford Harris","","14 York Rise","Crofton Road","Orpington","Kent","","BR6 8PR","Current","YORK","","York Rise","Kimberley Gould","YORK14","","14 York Rise","14 York Rise","Crofton Road","Orpington","Kent","","BR6 8PR","Active","","1","1","TF",1
"YORK15","","Mr & Mrs A A Martin","","3 St Josephs Close","Orpington","Kent","","","BR6 9TY","On Hold - PM","YORK","","York Rise","Kimberley Gould","YORK15","","15 York Rise","15 York Rise","Crofton Road","Orpington","Kent","","BR6 8PR","Active","","1","1","TF",1
"YORK16","","Mr Embleton","","16 York Rise","Crofton Road","Orpington","Kent","","BR6 8PR","StandingOrder","YORK","","York Rise","Kimberley Gould","YORK16","","16 York Rise*","16 York Rise","Crofton Road","Orpington","Kent","","BR6 8PR","Active","","1","1","TF",1
"YORK17","","Ms Louisa Jane Kate Gallagher","","17 York Rise","Crofton Road","Orpington","Kent","","BR6 8PR","Current","YORK","","York Rise","Kimberley Gould","YORK17","","17 York Rise","17 York Rise","Crofton Road","Orpington","Kent","","BR6 8PR","Active","","1","1","TF",1
"YORK18","","Ms E R Carswell","","18 York Rise","Crofton Road","Orpington","Kent","","BR6 8PR","Current","YORK","","York Rise","Kimberley Gould","YORK18","","18 York Rise","18 York Rise","Crofton Road","Orpington","Kent","","BR6 8PR","Active","","1","1","TF",1
"YORK19","","Mr & Mrs A Potter","","26 Drayton Avenue","Orpington","Kent","","","BR6 8JW","Current","YORK","","York Rise","Kimberley Gould","YORK19","","19 York Rise","26 Drayton Avenue","Orpington","Kent","","","BR6 8JW","Active","","1","1","TF",1
"YORK20","","Mr Kenneth B Meekums","","5 Dowding Road","Biggin Hill","Kent","","","TN16 3BE","Current","YORK","","York Rise","Kimberley Gould","YORK20","","20 York Rise","20 York Rise","Crofton Road","Orpington","Kent","","BR6 8PR","Active","","1","1","TF",1
"YORK21","","Daniel Ian Clifton","","21 York Rise","Crofton Road","Orpington","Kent","","BR6 8PR","On Hold - PM","YORK","","York Rise","Kimberley Gould","YORK21","","21 York Rise","21 York Rise","Crofton Road","Orpington","Kent","","BR6 8PR","Active","","1","1","TF",1
"YORK22","","Mr J D C Crockett","","2A Priory Avenue","Pelts Wood","Orpington","","","BR5 1JF","Payment Plan","YORK","","York Rise","Kimberley Gould","YORK22","","22 York Rise","36 Elm Grove","Orpington","Kent","BR6 OAB","","","Active","","1","1","TF",1
"YORK23","","Mr A G Torrington","","15 Bramdean Gardens","London","","","","SE12 0NT","Current","YORK","","York Rise","Kimberley Gould","YORK23","","23 York Rise","Flat 23 York Rise","Crofton Road","Orpington","Kent","","BR6 8PR","Active","","1","1","TF",1
"YORK24","","Mrs M K Potter","","26 Drayton Avenue","Orpington","Kent","","","","Payment Plan","YORK","","York Rise","Kimberley Gould","YORK24","","24 York Rise","26 Drayton Avenue","Orpington","Kent","","","","Active","","1","1","TF",1
"YORK25","","Mr D M Picken","","25 York Rise","Crofton Road","Orpington","Kent","BR 68PR","","Current","YORK","","York Rise","Kimberley Gould","YORK25","","25 York Rise","25 York Rise","Crofton Road","Orpington","Kent","BR 68PR","","Active","","1","1","TF",1
"YORK26","","BBF Engineering Limited","","Darent Acres","Shacklands Road","Shoreham","Kent","TN14","","Current","YORK","","York Rise","Kimberley Gould","YORK26","","26 York Rise","Darent Acres","Shacklands Road","Shoreham","Kent","TN14","","Active","","1","1","TF",1
"YORK27","","Simon Alan Johnson","","27 York Rise","Crofton Road","Orpington","Kent","","BR6 8PR","Payment Plan","YORK","","York Rise","Kimberley Gould","YORK27","","27 York Rise","27 York Rise","Crofton Road","Orpington","Kent","","BR6 8PR","Active","","1","1","TF",1
"YORK28","","Miss K J Moss","","28 York Rise","Orpington","Kent","","","BR6 8PR","StandingOrder","YORK","","York Rise","Kimberley Gould","YORK28","","28 York Rise","28 York Rise","Orpington","Kent","","","BR6 8PR","Active","","1","1","TF",1
"YORK29","","Ms D M Pople","","29 York Rise","Crofton Road","Orpington","Kent","","BR6 8PR","Current","YORK","","York Rise","Kimberley Gould","YORK29","","29 York Rise","29 York Rise","Crofton Road","Orpington","Kent","","BR6 8PR","Active","","1","1","TF",1
"YORK30","","Mr C B Du Fosse","","30 York Rise","Crofton Road","Orpington","Kent","","BR6 8PR","Current","YORK","","York Rise","Kimberley Gould","YORK30","","30 York Rise","30 York Rise","Crofton Road","Orpington","Kent","","BR6 8PR","Active","","1","1","TF",1
"YORK31","","Mr S Whitwell","","31 York Rise","Crofton Road","Orpington","Kent","","BR6 8PR","Current","YORK","","York Rise","Kimberley Gould","YORK31","","31 York Rise","31 York Rise","Crofton Road","Orpington","Kent","","BR6 8PR","Active","","1","1","TF",1
"YORK32","","Helena Geraldine Brady","","32 York Rise","Orpington","Kent","","","BR6 8PR","On Hold - PM","YORK","","York Rise","Kimberley Gould","YORK32","","32 York Rise","32 York Rise","Orpington","Kent","","","BR6 8PR","Active","","1","1","TF",1
"YORK33","","Mr & Mrs Jones","","57 Gumping Road","Orpington","Kent","","","BR5 1RD","StandingOrder","YORK","","York Rise","Kimberley Gould","YORK33","","33 York Rise","33 York Rise","Crofton Road","Orpington","Kent","","BR6 8PR","Active","","1","1","TF",1
"YORK34","","Ms Kelly May Knight","","34 York Rise","Orpington","Kent","","","BR6 8PR","Current","YORK","","York Rise","Kimberley Gould","YORK34","","34 York Rise","34 York Rise","Orpington","Kent","","","BR6 8PR","Active","","1","1","TF",1
"YORK35","","Ms L M Winterburn","","35 York Rise","Orpington","","","","BR6 8PR","Current","YORK","","York Rise","Kimberley Gould","YORK35","","35 York Rise","6 Rodway Road","Bromley","Kent","","","BR1 3JL","Active","","1","1","TF",1
"YORK36","","Mr S M Jarvie","","36 York Rise","Crofton Road","Orpington","Kent","","BR6 8PR","Current","YORK","","York Rise","Kimberley Gould","YORK36","","36 York Rise","36 York Rise","Crofton Road","Orpington","Kent","","BR6 8PR","Active","","1","1","TF",1
"YORK37","","Mr H N & Mrs C J Stoneham","","32 Woodride","Petts Wood","Kent","","","BR5 1PY","StandingOrder","YORK","","York Rise","Kimberley Gould","YORK37","","37 York Rise","37 York Rise","Crofton Road","Orpington","Kent","","BR6 8PR","Active","","1","1","TF",1
